<?xml version="1.0" encoding="utf-8"?>
<!-- Generator: Adobe Illustrator 18.1.1, SVG Export Plug-In . SVG Version: 6.00 Build 0)  -->
<svg version="1.1" id="Ebene_1" xmlns="http://www.w3.org/2000/svg" xmlns:xlink="http://www.w3.org/1999/xlink" x="0px" y="0px"
	 viewBox="0 0 24 24" width="50" height="50" enable-background="new 0 0 24 24" xml:space="preserve" fill="#00324b">
<rect fill="none" width="24" height="24"/>
<g>
	<g>
		<g>
			<polygon points="11.5,20.5 3,12 11.5,3.5 12.9,4.9 5.8,12 12.9,19.1 			"/>
		</g>
	</g>
</g>
<g>
	<g>
		<g>
			<polygon points="18.5,20.5 10,12 18.5,3.5 19.9,4.9 12.8,12 19.9,19.1 			"/>
		</g>
	</g>
</g>
</svg>
