<svg width="378.1" height="197.6" xmlns="http://www.w3.org/2000/svg">
 <style type="text/css">.st0{fill:#FF8800;}
	.st1{fill:#FFFFFF;}
	.st2{fill:#515054;}
	.st3{display:none;}
	.st4{display:inline;fill:#FF8800;}</style>

 <g>
  <title>Version Number</title>
  <text xml:space="preserve" y="188.4498" x="376.4669" transform="matrix(1 0 0 1.35972 0 -58.757)" text-anchor="end" stroke-width="0" stroke="#000" fill="#ff8800" font-size="24" font-family="Verdana" id="version_text">V5.14.0</text>
 </g>
 <g>
  <title>Layer 1</title>
  <g id="Ebene_4"/>
  <g id="Orange_BG"/>
  <g id="White_BG">
   <path d="m110.599998,100.199997l-13.799995,0l0,-69.599997c0,-8.4 -3.699997,-16 -14,-16c-14,0 -20,8.9 -20,23.6l0,62.000004l-13.800003,0l0,-69.100004c0,-8.199999 -4,-16.5 -13.599998,-16.5c-14.300001,0 -20.400002,8.699999 -20.400002,23.800001l0,61.800003l-13.8,0l0,-97.900005l13.8,0l0,7.8c5.1,-6.3 13.799999,-9.1 21.5,-9.1c10.099998,0 16.700001,5 20.599998,12.1c7.5,-9.8 18,-12.1 26.599998,-12.1c19.700005,0 26.799995,15.6 26.799995,28.200001l0,70.999996l0.100006,0z" id="svg_1" class="st0"/>
   <path d="m197.199997,100.199997l-13.800003,0l0,-9.300003c-4.199997,6.300003 -14.699997,11 -25.599991,11c-15.800003,0 -32.200005,-9.5 -32.200005,-31.799995c0,-18.200001 13.400002,-27.700001 31.099998,-27.700001l26.699997,0l0,-9.299999c0,-14.300003 -8.5,-18.600002 -19.899994,-18.600002c-10.5,0 -19.900009,4.799999 -20.400009,18.200001l-13.799988,0c0.800003,-23.099997 19.5,-31.699997 34,-31.699997c16.5,0 33.800003,8.2 33.800003,31.599998l0,67.599998l0.099991,0zm-13.800003,-44.599998l-26.300003,0c-10.5,0 -17.599991,4.099998 -17.599991,14.5c0,14.5 10.5,18.199997 20.599991,18.199997c11.600006,0 23.300003,-8 23.300003,-21.399994l0,-11.300003z" id="svg_2" class="st1"/>
   <path d="m252.300003,102.099998c-8.100006,0 -17.800003,-3.900002 -21.699997,-9.5l0,39.200005l-13.800003,0l0,-129.500003l13.800003,0l0,7.7c6.099991,-6.5 13.199997,-8.9 21.699997,-8.9c21.499985,0 35.499985,13.7 35.499985,35.100001l0,30.599995c0,21.700005 -13.599976,35.300003 -35.499985,35.300003zm21.699997,-66c0,-13.6 -8.100006,-21.5 -21.699997,-21.5c-17.800003,0 -21.700012,11.699999 -21.700012,21.5l0,30.599998c0,13.400002 8.100006,21.700005 21.700012,21.700005c17.800003,0 21.699997,-12.100006 21.699997,-21.700005l0,-30.599998z" id="svg_3" class="st1"/>
   <path d="m341.700012,102.099998c-8.100006,0 -17.799988,-3.900002 -21.700012,-9.5l0,39.200005l-13.799988,0l0,-129.500003l13.799988,0l0,7.7c6,-6.5 13.200012,-9 21.700012,-9c21.5,0 35.5,13.7 35.5,35.099998l0,30.599998c-0.100006,21.800003 -13.700012,35.400002 -35.5,35.400002zm21.699982,-66c0,-13.6 -8.100006,-21.5 -21.700012,-21.5c-17.799988,0 -21.699982,11.699999 -21.699982,21.5l0,30.599998c0,13.400002 8.100006,21.700005 21.699982,21.700005c17.800018,0 21.700012,-12.100006 21.700012,-21.700005l0,-30.599998z" id="svg_4" class="st1"/>
   <g id="svg_5">
    <path d="m27.700001,161.5c0,-6.399994 -4.299999,-9 -9.6,-9c-5.3,0 -9.7,2.5 -9.7,9l0,24.699997c0,6.5 4.400001,9 9.7,9c5.300001,0 9.6,-2.5 9.6,-9l3.700001,0l0,0.100006c0,7.599991 -5.200001,12.699997 -13.4,12.699997c-8.200001,0 -13.4,-5.100006 -13.4,-12.600006l0,-25c0,-7.5 5.199999,-12.599991 13.4,-12.599991c8.1,0 13.4,5.099991 13.4,12.699997l-3.700001,0z" id="svg_6" class="st0"/>
    <path d="m36.700001,186.399994l0,-25c0,-7.5 5.200001,-12.600006 13.399998,-12.600006c8.100002,0 13.400002,5.100006 13.400002,12.700012l0,24.899994c0,7.600006 -5.200001,12.699997 -13.400002,12.699997c-8.199997,-0.099991 -13.399998,-5.199997 -13.399998,-12.699997zm13.5,-33.899994c-5.299999,0 -9.700001,2.5 -9.700001,9l0,24.699997c0,6.5 4.400002,9 9.700001,9c5.299999,0 9.599998,-2.5 9.599998,-9l0,-24.699997c0,-6.399994 -4.299999,-9 -9.599998,-9z" id="svg_7" class="st0"/>
    <path d="m93,161.5c0,-6.399994 -4.300003,-9 -9.599998,-9c-5.300003,0 -9.700005,2.5 -9.700005,9l0,24.699997c0,6.5 4.400002,9 9.700005,9c5.299995,0 9.599998,-2.5 9.599998,-9l3.699997,0l0,0.100006c0,7.599991 -5.199997,12.699997 -13.399994,12.699997c-8.200005,0 -13.400002,-5.100006 -13.400002,-12.600006l0,-25c0,-7.5 5.199997,-12.599991 13.400002,-12.599991c8.099998,0 13.399994,5.099991 13.399994,12.699997l-3.699997,0z" id="svg_8" class="st0"/>
    <path d="m125.599998,198.399994l-14.099998,-24.100006l-5,7.600006l0,16.5l-3.700005,0l0,-49.100006l3.700005,0l0,26l18.099998,-26l4.299995,0l-15.099998,21.800003l16.200005,27.300003l-4.400002,0z" id="svg_9" class="st0"/>
    <path d="m148.399994,178.399994l-10.600006,0l0,20l-3.699997,0l0,-49.100006l14,0c10.600006,0 12.699997,8.5 12.699997,12.600006l0,3.699997c0.100006,4.200012 -1.999985,12.800003 -12.399994,12.800003zm8.700012,-16.399994c0,-7.899994 -5.899994,-9 -9.100006,-9l-10.199997,0l0,21.600006l10.300003,0c3.199997,0 9,-1.200012 9,-9.100006l0,-3.5z" id="svg_10" class="st0"/>
    <path d="m170.100006,149.300003l0,49.100006l-3.699997,0l0,-49.100006l3.699997,0z" id="svg_11" class="st0"/>
    <path d="m190.199997,153l0,45.400009l-3.699997,0l0,-45.400009l-12.300003,0l0,-3.699997l28.300003,0l0,3.699997l-12.300003,0z" id="svg_12" class="st0"/>
   </g>
   <rect height="13.8" width="85.6" y="118" x="111.6" id="svg_13" class="st1"/>
   <rect height="13.8" width="110.4" y="118" x="1.2" id="svg_14" class="st0"/>
   <polygon points="43.2,152.5 43.2,152.5 43.2,152.5 43.2,152.5" id="svg_15" class="st2"/>
   <g id="svg_16" class="st3">
    <path d="m541.299988,161c0,-6.399994 -4.299988,-9 -9.599976,-9c-5.300049,0 -9.700012,2.5 -9.700012,9l0,24.699997c0,6.5 4.399963,9 9.700012,9c5.299988,0 9.599976,-2.5 9.599976,-9l3.700012,0l0,0.100006c0,7.599991 -5.200012,12.699997 -13.400024,12.699997c-8.200012,0 -13.399963,-5.100006 -13.399963,-12.600006l0,-25c0,-7.5 5.199951,-12.599991 13.399963,-12.599991c8.100037,0 13.400024,5.099991 13.400024,12.699997l-3.700012,0z" id="svg_17" class="st4"/>
    <path d="m550.400024,185.899994l0,-25c0,-7.5 5.200012,-12.600006 13.400024,-12.600006c8.099976,0 13.399963,5.100006 13.399963,12.700012l0,24.899994c0,7.600006 -5.200012,12.699997 -13.399963,12.699997c-8.200073,-0.099991 -13.400024,-5.199997 -13.400024,-12.699997zm13.399963,-33.899994c-5.299988,0 -9.700012,2.5 -9.700012,9l0,24.699997c0,6.5 4.400024,9 9.700012,9c5.299988,0 9.599976,-2.5 9.599976,-9l0,-24.699997c0.000061,-6.399994 -4.299988,-9 -9.599976,-9z" id="svg_18" class="st4"/>
    <path d="m606.099976,197.899994l-18.099976,-43.299988l0,43.300003l-3.700012,0l0,-49.100006l5,0l18.299988,43.800003l0,-43.800003l3.700012,0l0,49.100006l-5.200012,0l0,-0.000015z" id="svg_19" class="st4"/>
    <path d="m631.599976,152.5l0,45.400009l-3.700012,0l0,-45.400009l-12.299988,0l0,-3.699997l28.299988,0l0,3.699997l-12.299988,0z" id="svg_20" class="st4"/>
    <path d="m671.200012,197.899994l-9.900024,-21.399994l-9.599976,0l0,21.399994l-3.700012,0l0,-49.100006l14,0c10.599976,0 12.700012,8.5 12.700012,12.5l0,2.400009c0,3.699997 -1.600037,10.800003 -9.5,12.5l10.200012,21.699997l-4.200012,0zm-0.200012,-36.399994c0,-7.899994 -5.900024,-9 -9.099976,-9l-10.200012,0l0,20.300003l10.299988,0c3.200012,0 9,-1.199997 9,-9.100006l0,-2.199997z" id="svg_21" class="st4"/>
    <path d="m680.799988,185.899994l0,-25c0,-7.5 5.200012,-12.600006 13.400024,-12.600006c8.099976,0 13.399963,5.100006 13.399963,12.700012l0,24.899994c0,7.600006 -5.200012,12.699997 -13.399963,12.699997c-8.200012,-0.099991 -13.400024,-5.199997 -13.400024,-12.699997zm13.400024,-33.899994c-5.299988,0 -9.700012,2.5 -9.700012,9l0,24.699997c0,6.5 4.400024,9 9.700012,9c5.299988,0 9.599976,-2.5 9.599976,-9l0,-24.699997c0,-6.399994 -4.299988,-9 -9.599976,-9z" id="svg_22" class="st4"/>
    <path d="m714.700012,197.899994l0,-49.100006l3.700012,0l0,45.400009l21.700012,0l0,3.699997l-25.400024,0z" id="svg_23" class="st4"/>
   </g>
  </g>
 </g>
 <g>
  <title>background</title>
  <rect height="105.354" width="185.17" y="-1" x="-1" fill="none" id="canvas_background"/>
 </g>
</svg>