<?xml version="1.0" encoding="UTF-8" standalone="no"?>
<!-- Created with Inkscape (http://www.inkscape.org/) -->

<svg
   xmlns:dc="http://purl.org/dc/elements/1.1/"
   xmlns:cc="http://creativecommons.org/ns#"
   xmlns:rdf="http://www.w3.org/1999/02/22-rdf-syntax-ns#"
   xmlns:svg="http://www.w3.org/2000/svg"
   xmlns="http://www.w3.org/2000/svg"
   xmlns:sodipodi="http://sodipodi.sourceforge.net/DTD/sodipodi-0.dtd"
   xmlns:inkscape="http://www.inkscape.org/namespaces/inkscape"
   width="210mm"
   height="297mm"
   viewBox="0 0 210 297"
   version="1.1"
   id="svg8"
   inkscape:version="0.92.3 (2405546, 2018-03-11)"
   sodipodi:docname="comboLogoDraft.svg">
  <defs
     id="defs2" />
  <sodipodi:namedview
     id="base"
     pagecolor="#ffffff"
     bordercolor="#666666"
     borderopacity="1.0"
     inkscape:pageopacity="0.0"
     inkscape:pageshadow="2"
     inkscape:zoom="0.70710682"
     inkscape:cx="74.097529"
     inkscape:cy="1328.5204"
     inkscape:document-units="mm"
     inkscape:current-layer="layer1"
     showgrid="false"
     inkscape:window-width="1668"
     inkscape:window-height="1368"
     inkscape:window-x="1913"
     inkscape:window-y="0"
     inkscape:window-maximized="0" />
  <metadata
     id="metadata5">
    <rdf:RDF>
      <cc:Work
         rdf:about="">
        <dc:format>image/svg+xml</dc:format>
        <dc:type
           rdf:resource="http://purl.org/dc/dcmitype/StillImage" />
        <dc:title />
      </cc:Work>
    </rdf:RDF>
  </metadata>
  <g
     inkscape:label="Layer 1"
     inkscape:groupmode="layer"
     id="layer1">
    <g
       id="g830"
       transform="matrix(0.41341146,0,0,0.41341146,9.564363,41.318953)"
       inkscape:export-xdpi="61.439926"
       inkscape:export-ydpi="61.439926"
       inkscape:export-filename="C:\Projects\vision-mapp\sources\VisionCockpit\DemoUI_5.5\Logical\mappView\Resources\Media\mappVision\icons\roiManipulations\copy.png">
      <g
         id="Copy">
        <path
           id="path815"
           d="M 24.325,17.5 H 21 V 14.123 C 21,13.908 20.618,13.75 20.403,13.75 H 18.05 c -0.217,0 -0.55,0.158 -0.55,0.373 V 17.5 h -3.372 c -0.215,0 -0.378,0.328 -0.378,0.545 v 2.352 c 0,0.215 0.163,0.602 0.378,0.602 H 17.5 v 3.368 c 0,0.217 0.333,0.382 0.55,0.382 h 2.353 C 20.618,24.749 21,24.584 21,24.367 V 21 h 3.325 c 0.215,0 0.425,-0.387 0.425,-0.602 v -2.352 c 0,-0.218 -0.21,-0.546 -0.425,-0.546 z m 0,0 H 21 V 14.123 C 21,13.908 20.618,13.75 20.403,13.75 H 18.05 c -0.217,0 -0.55,0.158 -0.55,0.373 V 17.5 h -3.372 c -0.215,0 -0.378,0.328 -0.378,0.545 v 2.352 c 0,0.215 0.163,0.602 0.378,0.602 H 17.5 v 3.368 c 0,0.217 0.333,0.382 0.55,0.382 h 2.353 C 20.618,24.749 21,24.584 21,24.367 V 21 h 3.325 c 0.215,0 0.425,-0.387 0.425,-0.602 v -2.352 c 0,-0.218 -0.21,-0.546 -0.425,-0.546 z m 5.47,-11 H 25.5 V 1.993 C 25.5,0.823 24.645,0 23.475,0 H 2.243 C 1.073,0 0,0.823 0,1.993 v 21.232 c 0,1.17 1.073,2.025 2.243,2.025 H 6.5 v 4.688 C 6.5,31.075 7.488,32 8.705,32 h 21.09 C 31.013,32 32,31.075 32,29.938 V 8.563 C 32,7.423 31.013,6.5 29.795,6.5 Z M 6.5,8.563 V 23.5 H 2.243 C 2.041,23.5 1.75,23.428 1.75,23.225 V 1.993 C 1.75,1.791 2.04,1.75 2.243,1.75 h 21.232 c 0.202,0 0.275,0.04 0.275,0.243 V 6.5 H 8.705 C 7.488,6.5 6.5,7.423 6.5,8.563 Z m 23.75,21.232 c 0,0.25 -0.205,0.455 -0.455,0.455 H 8.705 C 8.453,30.25 8.25,30.045 8.25,29.795 V 8.705 C 8.25,8.452 8.453,8.25 8.705,8.25 h 21.09 c 0.25,0 0.455,0.203 0.455,0.455 z M 24.325,17.5 H 21 V 14.123 C 21,13.908 20.618,13.75 20.403,13.75 H 18.05 c -0.217,0 -0.55,0.158 -0.55,0.373 V 17.5 h -3.372 c -0.215,0 -0.378,0.328 -0.378,0.545 v 2.352 c 0,0.215 0.163,0.602 0.378,0.602 H 17.5 v 3.368 c 0,0.217 0.333,0.382 0.55,0.382 h 2.353 C 20.618,24.749 21,24.584 21,24.367 V 21 h 3.325 c 0.215,0 0.425,-0.387 0.425,-0.602 v -2.352 c 0,-0.218 -0.21,-0.546 -0.425,-0.546 z"
           inkscape:connector-curvature="0" />
      </g>
      <g
         id="Ebene_1" />
    </g>
    <g
       id="g845"
       transform="matrix(0.41341146,0,0,0.41341146,44.736959,35.719803)"
       inkscape:export-xdpi="61.299999"
       inkscape:export-ydpi="61.299999"
       inkscape:export-filename="C:\Projects\vision-mapp\sources\VisionCockpit\DemoUI_5.5\Logical\mappView\Resources\Media\mappVision\icons\roiManipulations\manipulation.png">
      <g
         id="Delete">
        <path
           d="m 70.994286,-26.907143 h -6.805 v -2.415 c 0,-1.352 -1.072,-2.335 -2.425,-2.335 h -4.925 c -1.352,0 -2.4,0.983 -2.4,2.335 v 2.415 h -6.83 c -0.337,0 -0.67,0.325 -0.67,0.663 v 1.232 c 0,0.338 0.333,0.605 0.67,0.605 h 23.385 c 0.34,0 0.695,-0.267 0.695,-0.605 v -1.232 c 0,-0.338 -0.355,-0.663 -0.695,-0.663 z m -9.305,0 h -4.75 v -2.5 h 4.75 z m 7.82,3.75 h -20.67 c -0.477,0 -0.65,0.208 -0.65,0.605 v 22.36700019 c 0,0 0.173,0.527 0.65,0.527 h 20.67 c 0.48,0 0.93,-0.34200000303 0.93,-0.74 V -22.659143 c 0,-0.398 -0.45,-0.498 -0.93,-0.498 z m -15.07,19.0680002 c 0,0.053 -0.007,0.105 -0.025,0.155 -0.048,0.145 -0.155,0.27 -0.277,0.355 -0.018,0.012 -0.042,0.035 -0.065,0.055 -0.003,0.003 -0.005,0.003 -0.007,0.005 -0.015,0.012 -0.032,0.025 -0.045,0.03 -0.055,0.023 -0.125,0.057 -0.19,0.075 -0.02,0.005 -0.042,0.007 -0.065,0.007 h -1.473 c -0.035,0 -0.07,-0.092 -0.102,-0.115 -0.065,-0.045 -0.122,-0.132 -0.167,-0.197 -0.023,-0.033 -0.033,-0.08 -0.048,-0.115 0,-0.003 -0.003,-0.007 0,-0.01 -0.031,-0.073 -0.036,-0.16 -0.036,-0.245 V -18.859143 c 0,-0.085 0.005,-0.163 0.035,-0.235 -0.003,-0.003 0,-0.003 0,-0.005 0.012,-0.03 0.025,-0.06 0.045,-0.087 0,-0.003 0,-0.005 0.003,-0.008 0.012,-0.02 0.028,-0.037 0.043,-0.053 0.035,-0.047 0.078,-0.087 0.128,-0.122 0.025,-0.018 0.05,-0.015 0.078,-0.018 0.007,0 0.015,-0.005 0.022,-0.008 0.073,-0.03 0.155,-0.013 0.24,-0.013 h 1.232 c 0.06,0 0.128,-0.01 0.188,-0.002 0.018,0.003 0.035,0.008 0.053,0.015 0.035,0.015 0.1,0.02 0.132,0.043 0.107,0.075 0.202,0.17 0.258,0.285 0.007,0.018 0.015,0.038 0.02,0.055 0.018,0.05 0.025,0.1 0.025,0.153 v 14.7700002 z m 6,0 c 0,0.338 -0.182,0.682 -0.522,0.682 h -1.23 c -0.34,0 -0.498,-0.345 -0.498,-0.682 V -18.859143 c 0,-0.338 0.158,-0.548 0.498,-0.548 h 1.23 c 0.34,0 0.522,0.21 0.522,0.548 0,0 0,14.7700002 0,14.7700002 z m 6.25,0 c 0,0.062 -0.01,0.13 -0.03,0.188 -0.008,0.018 -0.012,0.035 -0.02,0.053 -0.005,0.012 -0.012,0.025 -0.017,0.038 -0.003,0.007 -0.007,0.018 -0.015,0.025 -0.007,0.012 -0.015,0.027 -0.025,0.04 -0.045,0.065 -0.103,0.123 -0.168,0.168 -0.033,0.022 -0.067,0.075 -0.102,0.09 -0.072,0.03 -0.155,0.082 -0.24,0.082 h -1.233 c -0.02,0 -0.042,-0.002 -0.065,-0.007 -0.015,-0.005 -0.033,-0.01 -0.048,-0.015 -0.045,-0.02 -0.087,-0.042 -0.127,-0.06 -0.01,-0.005 -0.023,-0.012 -0.038,-0.017 -0.003,-0.003 -0.003,-0.002 -0.005,-0.005 -0.027,-0.015 -0.057,-0.035 -0.077,-0.05 -0.11,-0.075 -0.202,-0.19 -0.25,-0.32 -0.005,-0.018 -0.013,-0.035 -0.018,-0.053 -0.015,-0.05 -0.023,-0.102 -0.023,-0.155 V -18.857143 c 0,-0.053 0.008,-0.105 0.023,-0.153 0.043,-0.147 0.143,-0.272 0.268,-0.357 0.033,-0.022 0.075,-0.01 0.11,-0.025 0.02,-0.008 0.04,-0.013 0.063,-0.015 0.06,-0.008 0.123,0.002 0.188,0.002 h 1.232 c 0.085,0 0.17,-0.017 0.243,0.013 0.035,0.015 0.067,0.02 0.1,0.043 0.065,0.045 0.123,0.093 0.168,0.158 0.012,0.018 0.022,0.033 0.033,0.05 0.01,0.015 0.017,0.033 0.025,0.05 0.008,0.017 0.015,0.037 0.02,0.055 0.02,0.058 0.03,0.118 0.03,0.18 v 14.7670002 z m -12.552,-15.2800002 c -0.033,-0.022 -0.083,-0.007 -0.117,-0.025 -0.023,-0.01 -0.043,-0.012 -0.068,-0.015 0.018,0.003 0.035,0.007 0.053,0.015 0.035,0.015 0.1,0.02 0.132,0.042 0.107,0.075 0.202,0.17 0.258,0.285 -0.053,-0.122 -0.151,-0.227 -0.258,-0.302 z m 0,15.7900002 c -0.018,0.012 -0.042,0.035 -0.065,0.055 0.025,-0.012 0.048,-0.027 0.065,-0.037 0.122,-0.085 0.232,-0.22 0.277,-0.373 -0.047,0.145 -0.155,0.27 -0.277,0.355 z m 12.547,-15.4600002 c -0.005,-0.018 0.005,-0.038 0.005,-0.055 0,-0.003 0,-0.003 0,-0.005 0,-0.015 -0.04,-0.03 -0.05,-0.045 -0.01,-0.02 -0.032,-0.04 -0.045,-0.057 -0.045,-0.065 -0.11,-0.123 -0.175,-0.168 -0.033,-0.02 -0.067,-0.007 -0.105,-0.025 0.035,0.015 0.068,0.02 0.1,0.042 0.065,0.045 0.123,0.092 0.168,0.158 0.012,0.018 0.022,0.033 0.033,0.05 0.01,0.015 0.017,0.033 0.025,0.05 0.008,0.017 0.015,0.037 0.02,0.055 0.02,0.058 0.03,0.118 0.03,0.18 -0.001,-0.063 0.014,-0.123 -0.006,-0.18 z m -0.062,15.2270002 c 0.008,-0.01 0.012,-0.023 0.018,-0.033 0.008,-0.018 0.015,-0.038 0.02,-0.058 -0.008,0.018 -0.012,0.035 -0.02,0.053 -0.006,0.013 -0.013,0.026 -0.018,0.038 z m -0.208,0.233 c -0.033,0.022 -0.067,0.075 -0.102,0.09 0.038,-0.018 0.07,-0.053 0.102,-0.072 0.065,-0.045 0.123,-0.113 0.168,-0.178 0.01,-0.015 0.02,-0.03 0.025,-0.048 -0.007,0.012 -0.015,0.027 -0.025,0.04 -0.045,0.065 -0.103,0.123 -0.168,0.168 z m -1.852,0.072 c 0.01,0.008 0.018,0.012 0.027,0.018 0.04,0.018 0.088,0.04 0.137,0.06 -0.045,-0.02 -0.087,-0.042 -0.127,-0.06 -0.01,-0.005 -0.022,-0.013 -0.037,-0.018 z"
           id="Löschen_2_3_"
           inkscape:connector-curvature="0" />
      </g>
      <g
         id="Ebene_1_1_" />
    </g>
    <g
       id="g862"
       transform="matrix(0.41444498,0,0,0.41444498,10.697557,59.491483)"
       inkscape:export-xdpi="61.286781"
       inkscape:export-ydpi="61.286781"
       inkscape:export-filename="C:\Projects\vision-mapp\sources\VisionCockpit\DemoUI_5.5\Logical\mappView\Resources\Media\mappVision\icons\roiManipulations\paste.png">
      <g
         id="Insert">
        <path
           id="path847"
           d="M 27.02,19.443 21,23.903 19.857,24.751 19.8,24.793 c -0.12,0.087 -0.222,0.065 -0.257,-0.042 -0.01,-0.028 -0.015,-0.058 -0.015,-0.095 l -0.005,-3.383 c -0.54,-0.005 -1.25,-0.01 -2.022,0.038 -2.148,0.14 -4.798,0.715 -5.76,3.007 0.033,-2.347 0.878,-3.952 2.01,-5.05 0.887,-0.865 1.952,-1.415 2.942,-1.768 0.275,-0.098 0.548,-0.183 0.808,-0.25 0.87,-0.235 1.61,-0.323 2.017,-0.353 l -0.002,-3.052 c 0,-0.038 0.005,-0.07 0.015,-0.095 0.035,-0.11 0.137,-0.13 0.257,-0.043 l 0.057,0.043 1.155,0.853 6.02,4.44 c 0.148,0.11 0.15,0.29 0,0.4 z M 29.795,6.5 H 25.5 V 1.993 C 25.5,0.823 24.645,0 23.475,0 H 2.243 C 1.073,0 0,0.823 0,1.993 v 21.232 c 0,1.17 1.073,2.025 2.243,2.025 H 6.5 v 4.688 C 6.5,31.075 7.488,32 8.705,32 h 21.09 C 31.013,32 32,31.075 32,29.938 V 8.563 C 32,7.423 31.013,6.5 29.795,6.5 Z M 6.5,8.563 V 23.5 H 2.243 C 2.041,23.5 1.75,23.428 1.75,23.225 V 1.993 C 1.75,1.791 2.04,1.75 2.243,1.75 h 21.232 c 0.202,0 0.275,0.04 0.275,0.243 V 6.5 H 8.705 C 7.488,6.5 6.5,7.423 6.5,8.563 Z m 23.75,21.232 c 0,0.25 -0.205,0.455 -0.455,0.455 H 8.705 C 8.453,30.25 8.25,30.045 8.25,29.795 V 8.705 C 8.25,8.452 8.453,8.25 8.705,8.25 h 21.09 c 0.25,0 0.455,0.203 0.455,0.455 z"
           inkscape:connector-curvature="0" />
      </g>
      <g
         id="Ebene_1-9" />
    </g>
    <g
       id="g830-3"
       transform="matrix(0.41341146,0,0,0.41341146,74.211744,3.1313777)">
      <g
         id="Copy-6">
        <path
           id="path815-4"
           d="m 9.7697361,8.5364675 h -4.295 v -4.507 c 0,-1.17 -0.855,-1.993 -2.025,-1.993 H -17.782264 c -1.17,0 -2.243,0.823 -2.243,1.993 V 25.261468 c 0,1.17 1.073,2.025 2.243,2.025 h 4.257 v 4.688 c 0,1.137 0.988,2.062 2.205,2.062 H 9.7697361 c 1.2179999,0 2.2049999,-0.925 2.2049999,-2.062 v -21.375 c 0,-1.1400005 -0.987,-2.0630005 -2.2049999,-2.0630005 z M -13.525264,10.599468 v 14.937 h -4.257 c -0.202,0 -0.493,-0.072 -0.493,-0.275 V 4.0294675 c 0,-0.202 0.29,-0.243 0.493,-0.243 H 3.4497361 c 0.202,0 0.275,0.04 0.275,0.243 v 4.507 H -11.320264 c -1.217,0 -2.205,0.923 -2.205,2.0630005 z m 23.75,21.232 c 0,0.25 -0.205,0.455 -0.4549999,0.455 H -11.320264 c -0.252,0 -0.455,-0.205 -0.455,-0.455 v -21.09 c 0,-0.253 0.203,-0.455 0.455,-0.455 H 9.7697361 c 0.2499999,0 0.4549999,0.203 0.4549999,0.455 z"
           inkscape:connector-curvature="0"
           sodipodi:nodetypes="scsssssscssssssscsssssscsssssssssss" />
      </g>
      <g
         id="Ebene_1-8" />
    </g>
    <g
       id="g1488"
       transform="translate(31.666673,-0.15763332)"
       inkscape:export-filename="C:\Projects\vision-mapp\sources\VisionCockpit\DemoUI_5.5\Logical\mappView\Resources\Media\mappVision\icons\roiManipulations\manipulation.png"
       inkscape:export-xdpi="61.299999"
       inkscape:export-ydpi="61.299999">
      <g
         inkscape:export-ydpi="122.8836"
         inkscape:export-xdpi="122.8836"
         style="fill:#000000;fill-opacity:1;stroke:none;stroke-opacity:1"
         transform="matrix(0.41341146,0,0,0.41341146,47.722058,28.179076)"
         id="g830-3-3-5">
        <g
           style="fill:#000000;fill-opacity:1;stroke:none;stroke-opacity:1"
           id="Copy-6-7-8">
          <path
             style="fill:#ffffff;fill-opacity:1;stroke:none;stroke-opacity:1"
             sodipodi:nodetypes="cccsssscc"
             inkscape:connector-curvature="0"
             d="m -21.811492,-3.4522616 c -1.217,0 -2.205,0.923 -2.205,2.0630005 V 19.985739 c 0,1.137 0.988,2.062 2.205,2.062 h 21.08999982 c 1.2179999,0 2.20499988,-0.925 2.20499988,-2.062 V -1.3892611 c 0,-1.1400005 -0.98699998,-2.0630005 -2.20499988,-2.0630005 z"
             id="path815-4-4-9" />
        </g>
        <g
           style="fill:#000000;fill-opacity:1;stroke:none;stroke-opacity:1"
           id="Ebene_1-8-6-0" />
      </g>
      <path
         inkscape:export-ydpi="122.8836"
         inkscape:export-xdpi="122.8836"
         sodipodi:nodetypes="scsssscsssscsssscssssscsssscsssscsssscssssscsssscsssscsssscssss"
         inkscape:connector-curvature="0"
         d="m 44.418183,30.48078 h -1.374594 v -1.396091 c 0,-0.08888 -0.157923,-0.154202 -0.246806,-0.154202 h -0.972758 c -0.08971,0 -0.227376,0.06532 -0.227376,0.154202 v 1.396091 h -1.394023 c -0.08888,0 -0.15627,0.135599 -0.15627,0.225309 v 0.972344 c 0,0.08888 0.06739,0.248874 0.15627,0.248874 h 1.394023 v 1.39237 c 0,0.08971 0.137666,0.157923 0.227376,0.157923 h 0.972758 c 0.08888,0 0.246806,-0.06821 0.246806,-0.157923 V 31.92772 h 1.374594 c 0.08888,0 0.1757,-0.15999 0.1757,-0.248874 v -0.972343 c 0,-0.09012 -0.08682,-0.225723 -0.1757,-0.225723 z m 0,0 h -1.374594 v -1.396091 c 0,-0.08888 -0.157923,-0.154202 -0.246806,-0.154202 h -0.972758 c -0.08971,0 -0.227376,0.06532 -0.227376,0.154202 v 1.396091 h -1.394023 c -0.08888,0 -0.15627,0.135599 -0.15627,0.225309 v 0.972344 c 0,0.08888 0.06739,0.248874 0.15627,0.248874 h 1.394023 v 1.39237 c 0,0.08971 0.137666,0.157923 0.227376,0.157923 h 0.972758 c 0.08888,0 0.246806,-0.06821 0.246806,-0.157923 V 31.92772 h 1.374594 c 0.08888,0 0.1757,-0.15999 0.1757,-0.248874 v -0.972343 c 0,-0.09012 -0.08682,-0.225723 -0.1757,-0.225723 z m 0,0 h -1.374594 v -1.396091 c 0,-0.08888 -0.157923,-0.154202 -0.246806,-0.154202 h -0.972758 c -0.08971,0 -0.227376,0.06532 -0.227376,0.154202 v 1.396091 h -1.394023 c -0.08888,0 -0.15627,0.135599 -0.15627,0.225309 v 0.972344 c 0,0.08888 0.06739,0.248874 0.15627,0.248874 h 1.394023 v 1.39237 c 0,0.08971 0.137666,0.157923 0.227376,0.157923 h 0.972758 c 0.08888,0 0.246806,-0.06821 0.246806,-0.157923 V 31.92772 h 1.374594 c 0.08888,0 0.1757,-0.15999 0.1757,-0.248874 v -0.972343 c 0,-0.09012 -0.08682,-0.225723 -0.1757,-0.225723 z"
         id="path815-8"
         style="stroke-width:0.41341147" />
      <g
         inkscape:export-ydpi="122.8836"
         inkscape:export-xdpi="122.8836"
         style="stroke:#ffffff;stroke-width:0.96514624;stroke-miterlimit:4;stroke-dasharray:none;stroke-opacity:1;paint-order:stroke markers fill"
         transform="matrix(0.41444497,0,0,0.41444497,35.478231,25.245183)"
         id="g862-1">
        <g
           style="stroke:#ffffff;stroke-width:0.96514624;stroke-miterlimit:4;stroke-dasharray:none;stroke-opacity:1;paint-order:stroke markers fill"
           id="Insert-8">
          <path
             style="stroke:#ffffff;stroke-width:0.96514624;stroke-miterlimit:4;stroke-dasharray:none;stroke-opacity:1;paint-order:stroke markers fill"
             sodipodi:nodetypes="cccccccccccccccccccc"
             inkscape:connector-curvature="0"
             d="M 27.02,19.443 21,23.903 19.857,24.751 19.8,24.793 c -0.12,0.087 -0.222,0.065 -0.257,-0.042 -0.01,-0.028 -0.015,-0.058 -0.015,-0.095 l -0.005,-3.383 c -0.54,-0.005 -1.25,-0.01 -2.022,0.038 -2.148,0.14 -4.798,0.715 -5.76,3.007 0.033,-2.347 0.878,-3.952 2.01,-5.05 0.887,-0.865 1.952,-1.415 2.942,-1.768 0.275,-0.098 0.548,-0.183 0.808,-0.25 0.87,-0.235 1.61,-0.323 2.017,-0.353 l -0.002,-3.052 c 0,-0.038 0.005,-0.07 0.015,-0.095 0.035,-0.11 0.137,-0.13 0.257,-0.043 l 0.057,0.043 1.155,0.853 6.02,4.44 c 0.148,0.11 0.15,0.29 0,0.4 z"
             id="path847-0" />
        </g>
        <g
           style="stroke:#ffffff;stroke-width:0.96514624;stroke-miterlimit:4;stroke-dasharray:none;stroke-opacity:1;paint-order:stroke markers fill"
           id="Ebene_1-9-2" />
      </g>
      <g
         inkscape:export-ydpi="122.8836"
         inkscape:export-xdpi="122.8836"
         style="fill:#000000;fill-opacity:1;stroke:none;stroke-opacity:1"
         transform="matrix(0.41341146,0,0,0.41341146,43.384864,23.222798)"
         id="g830-3-3">
        <g
           style="fill:#000000;fill-opacity:1;stroke:none;stroke-opacity:1"
           id="Copy-6-7">
          <path
             style="fill:#000000;fill-opacity:1;stroke:none;stroke-opacity:1"
             sodipodi:nodetypes="cccssssccsssssssss"
             inkscape:connector-curvature="0"
             d="m -11.320264,8.5364675 c -1.217,0 -2.205,0.923 -2.205,2.0630005 v 21.375 c 0,1.137 0.988,2.062 2.205,2.062 H 9.7697361 c 1.2179999,0 2.2049999,-0.925 2.2049999,-2.062 v -21.375 c 0,-1.1400005 -0.987,-2.0630005 -2.2049999,-2.0630005 z m 21.545,23.2950005 c 0,0.25 -0.205,0.455 -0.4549999,0.455 H -11.320264 c -0.252,0 -0.455,-0.205 -0.455,-0.455 v -21.09 c 0,-0.253 0.203,-0.455 0.455,-0.455 H 9.7697361 c 0.2499999,0 0.4549999,0.203 0.4549999,0.455 z"
             id="path815-4-4" />
        </g>
        <g
           style="fill:#000000;fill-opacity:1;stroke:none;stroke-opacity:1"
           id="Ebene_1-8-6" />
      </g>
    </g>
    <g
       id="g14450"
       transform="matrix(0.41341146,0,0,0.41341146,8.3525107,23.223001)"
       inkscape:export-xdpi="61.441799"
       inkscape:export-ydpi="61.441799"
       inkscape:export-filename="C:\Projects\vision-mapp\sources\VisionCockpit\DemoUI_5.5\Logical\mappView\Resources\Media\mappVision\icons\roiManipulations\delete.png">
      <g
         id="Delete-3">
        <path
           d="M 27.68,4.75 H 20.875 V 2.335 C 20.875,0.983 19.803,0 18.45,0 h -4.925 c -1.352,0 -2.4,0.983 -2.4,2.335 V 4.75 h -6.83 c -0.337,0 -0.67,0.325 -0.67,0.663 v 1.232 c 0,0.338 0.333,0.605 0.67,0.605 H 27.68 c 0.34,0 0.695,-0.267 0.695,-0.605 V 5.413 C 28.375,5.075 28.02,4.75 27.68,4.75 Z m -9.305,0 h -4.75 v -2.5 h 4.75 z m 7.82,3.75 H 5.525 c -0.477,0 -0.65,0.208 -0.65,0.605 v 22.367 c 0,0 0.173,0.527 0.65,0.527 h 20.67 c 0.48,0 0.93,-0.342 0.93,-0.74 V 8.998 C 27.125,8.6 26.675,8.5 26.195,8.5 Z m -15.07,19.068 c 0,0.053 -0.007,0.105 -0.025,0.155 -0.048,0.145 -0.155,0.27 -0.277,0.355 -0.018,0.012 -0.042,0.035 -0.065,0.055 -0.003,0.003 -0.005,0.003 -0.007,0.005 -0.015,0.012 -0.032,0.025 -0.045,0.03 -0.055,0.023 -0.125,0.057 -0.19,0.075 -0.02,0.005 -0.042,0.007 -0.065,0.007 H 8.978 C 8.943,28.25 8.908,28.158 8.876,28.135 8.811,28.09 8.754,28.003 8.709,27.938 8.686,27.905 8.676,27.858 8.661,27.823 c 0,-0.003 -0.003,-0.007 0,-0.01 C 8.63,27.74 8.625,27.653 8.625,27.568 v -14.77 c 0,-0.085 0.005,-0.163 0.035,-0.235 -0.003,-0.003 0,-0.003 0,-0.005 0.012,-0.03 0.025,-0.06 0.045,-0.087 0,-0.003 0,-0.005 0.003,-0.008 0.012,-0.02 0.028,-0.037 0.043,-0.053 0.035,-0.047 0.078,-0.087 0.128,-0.122 0.025,-0.018 0.05,-0.015 0.078,-0.018 0.007,0 0.015,-0.005 0.022,-0.008 0.073,-0.03 0.155,-0.013 0.24,-0.013 h 1.232 c 0.06,0 0.128,-0.01 0.188,-0.002 0.018,0.003 0.035,0.008 0.053,0.015 0.035,0.015 0.1,0.02 0.132,0.043 0.107,0.075 0.202,0.17 0.258,0.285 0.007,0.018 0.015,0.038 0.02,0.055 0.018,0.05 0.025,0.1 0.025,0.153 v 14.77 z m 6,0 c 0,0.338 -0.182,0.682 -0.522,0.682 h -1.23 c -0.34,0 -0.498,-0.345 -0.498,-0.682 v -14.77 c 0,-0.338 0.158,-0.548 0.498,-0.548 h 1.23 c 0.34,0 0.522,0.21 0.522,0.548 0,0 0,14.77 0,14.77 z m 6.25,0 c 0,0.062 -0.01,0.13 -0.03,0.188 -0.008,0.018 -0.012,0.035 -0.02,0.053 -0.005,0.012 -0.012,0.025 -0.017,0.038 -0.003,0.007 -0.007,0.018 -0.015,0.025 -0.007,0.012 -0.015,0.027 -0.025,0.04 -0.045,0.065 -0.103,0.123 -0.168,0.168 -0.033,0.022 -0.067,0.075 -0.102,0.09 -0.072,0.03 -0.155,0.082 -0.24,0.082 h -1.233 c -0.02,0 -0.042,-0.002 -0.065,-0.007 -0.015,-0.005 -0.033,-0.01 -0.048,-0.015 -0.045,-0.02 -0.087,-0.042 -0.127,-0.06 -0.01,-0.005 -0.023,-0.012 -0.038,-0.017 -0.003,-0.003 -0.003,-0.002 -0.005,-0.005 -0.027,-0.015 -0.057,-0.035 -0.077,-0.05 -0.11,-0.075 -0.202,-0.19 -0.25,-0.32 C 20.91,27.76 20.902,27.743 20.897,27.725 20.882,27.675 20.874,27.623 20.874,27.57 V 12.8 c 0,-0.053 0.008,-0.105 0.023,-0.153 0.043,-0.147 0.143,-0.272 0.268,-0.357 0.033,-0.022 0.075,-0.01 0.11,-0.025 0.02,-0.008 0.04,-0.013 0.063,-0.015 0.06,-0.008 0.123,0.002 0.188,0.002 h 1.232 c 0.085,0 0.17,-0.017 0.243,0.013 0.035,0.015 0.067,0.02 0.1,0.043 0.065,0.045 0.123,0.093 0.168,0.158 0.012,0.018 0.022,0.033 0.033,0.05 0.01,0.015 0.017,0.033 0.025,0.05 0.008,0.017 0.015,0.037 0.02,0.055 0.02,0.058 0.03,0.118 0.03,0.18 V 27.568 Z M 10.823,12.288 c -0.033,-0.022 -0.083,-0.007 -0.117,-0.025 -0.023,-0.01 -0.043,-0.012 -0.068,-0.015 0.018,0.003 0.035,0.007 0.053,0.015 0.035,0.015 0.1,0.02 0.132,0.042 0.107,0.075 0.202,0.17 0.258,0.285 -0.053,-0.122 -0.151,-0.227 -0.258,-0.302 z m 0,15.79 c -0.018,0.012 -0.042,0.035 -0.065,0.055 0.025,-0.012 0.048,-0.027 0.065,-0.037 0.122,-0.085 0.232,-0.22 0.277,-0.373 -0.047,0.145 -0.155,0.27 -0.277,0.355 z M 23.37,12.618 c -0.005,-0.018 0.005,-0.038 0.005,-0.055 0,-0.003 0,-0.003 0,-0.005 0,-0.015 -0.04,-0.03 -0.05,-0.045 -0.01,-0.02 -0.032,-0.04 -0.045,-0.057 -0.045,-0.065 -0.11,-0.123 -0.175,-0.168 -0.033,-0.02 -0.067,-0.007 -0.105,-0.025 0.035,0.015 0.068,0.02 0.1,0.042 0.065,0.045 0.123,0.092 0.168,0.158 0.012,0.018 0.022,0.033 0.033,0.05 0.01,0.015 0.017,0.033 0.025,0.05 0.008,0.017 0.015,0.037 0.02,0.055 0.02,0.058 0.03,0.118 0.03,0.18 -0.001,-0.063 0.014,-0.123 -0.006,-0.18 z m -0.062,15.227 c 0.008,-0.01 0.012,-0.023 0.018,-0.033 0.008,-0.018 0.015,-0.038 0.02,-0.058 -0.008,0.018 -0.012,0.035 -0.02,0.053 -0.006,0.013 -0.013,0.026 -0.018,0.038 z M 23.1,28.078 c -0.033,0.022 -0.067,0.075 -0.102,0.09 0.038,-0.018 0.07,-0.053 0.102,-0.072 0.065,-0.045 0.123,-0.113 0.168,-0.178 0.01,-0.015 0.02,-0.03 0.025,-0.048 -0.007,0.012 -0.015,0.027 -0.025,0.04 -0.045,0.065 -0.103,0.123 -0.168,0.168 z m -1.852,0.072 c 0.01,0.008 0.018,0.012 0.027,0.018 0.04,0.018 0.088,0.04 0.137,0.06 -0.045,-0.02 -0.087,-0.042 -0.127,-0.06 -0.01,-0.005 -0.022,-0.013 -0.037,-0.018 z"
           id="Löschen_2_3_-7"
           inkscape:connector-curvature="0" />
      </g>
      <g
         id="Ebene_1_1_-5" />
    </g>
    <g
       id="g845-3"
       transform="matrix(0.41341146,0,0,0.41341146,-10.438404,18.083887)"
       inkscape:export-xdpi="72.514709"
       inkscape:export-ydpi="72.514709"
       inkscape:export-filename="C:\Projects\vision-mapp\sources\VisionCockpit\DemoUI_5.5\Logical\mappView\Resources\Media\mappVision\icons\roiManipulations\manipulation.png">
      <g
         id="Delete-7">
        <path
           style="stroke-width:1.5625"
           d="m 245.35938,216.88477 c -2.11251,0 -3.75001,1.53593 -3.75,3.64843 v 3.77344 H 230.9375 c -0.52656,0 -1.04687,0.50703 -1.04688,1.03516 v 1.92578 c 0,0.52812 0.52032,0.94531 1.04688,0.94531 h 36.53906 c 0.53125,0 1.08594,-0.41719 1.08594,-0.94531 v -1.92578 c 0,-0.52813 -0.55469,-1.03516 -1.08594,-1.03516 h -10.63281 v -3.77344 c 0,-2.1125 -1.675,-3.64843 -3.78906,-3.64843 z m 0.15624,3.51562 h 7.42188 v 3.90625 h -7.42188 z m -12.65624,9.76563 c -0.74532,0 -1.01563,0.325 -1.01563,0.94531 v 34.94726 c 0,0 0.27031,0.82422 1.01563,0.82422 h 11.20703 v -34.28125 c 0,-0.95808 0.43517,-1.81847 1.12695,-2.43554 z m 5.57617,5.8496 c 0.0629,7.9e-4 0.1289,0.008 0.19531,0.008 h 1.92578 c 0.0937,0 0.19922,-0.0164 0.29297,-0.004 0.012,0.002 0.0234,0.007 0.0352,0.01 -0.0121,-0.002 -0.0236,-0.006 -0.0371,-0.008 0.0281,0.005 0.0559,0.0109 0.084,0.0234 0.0547,0.0234 0.15508,0.032 0.20508,0.0664 0,0 0.002,0 0.002,0 0.16669,0.11705 0.31506,0.26606 0.40235,0.44531 0.0109,0.0281 0.0234,0.0594 0.0312,0.0859 0.0281,0.0781 0.0391,0.15547 0.0391,0.23828 v 23.07812 h -0.002 c 0,0.0828 -0.0109,0.16407 -0.0391,0.24219 -0.0375,0.11328 -0.0988,0.21875 -0.17383,0.3125 -0.075,0.0933 -0.16483,0.17605 -0.25976,0.24219 -0.0281,0.0188 -0.0656,0.0547 -0.10156,0.0859 -0.005,0.005 -0.007,0.005 -0.01,0.008 -0.0234,0.0188 -0.05,0.0391 -0.0703,0.0469 -0.0859,0.0359 -0.19531,0.0891 -0.29688,0.11719 -0.0312,0.008 -0.0656,0.0117 -0.10156,0.0117 h -2.30273 c -0.0547,0 -0.10821,-0.14375 -0.15821,-0.17969 -0.10156,-0.0703 -0.1914,-0.20703 -0.26172,-0.30859 -0.0359,-0.0516 -0.0508,-0.125 -0.0742,-0.17969 0,-0.005 -0.005,-0.0109 0,-0.0156 -0.0484,-0.11407 -0.0566,-0.25 -0.0566,-0.38282 v -23.07812 c 0,-0.13281 0.008,-0.25469 0.0547,-0.36719 -0.005,-0.005 0,-0.005 0,-0.008 0.0187,-0.0469 0.0391,-0.0926 0.0703,-0.13477 0,-0.005 -7.8e-4,-0.009 0.004,-0.0137 0.0187,-0.0312 0.0449,-0.057 0.0684,-0.082 0.0547,-0.0734 0.12109,-0.13672 0.19922,-0.19141 0.0391,-0.0281 0.0773,-0.0226 0.12109,-0.0273 0.0109,0 0.0242,-0.009 0.0352,-0.0137 0.057,-0.0234 0.1168,-0.0281 0.17969,-0.0273 z"
           transform="matrix(0.64,0,0,0.64,-100.19056,-170.46306)"
           id="Löschen_2_3_-5"
           inkscape:connector-curvature="0" />
      </g>
      <g
         id="Ebene_1_1_-1" />
    </g>
    <g
       id="g830-3-3-8-2"
       transform="matrix(0.4418416,0,0,0.43542189,82.000327,77.338078)"
       style="fill:#000000;fill-opacity:1;stroke:none;stroke-opacity:1"
       inkscape:export-xdpi="122.8836"
       inkscape:export-ydpi="122.8836">
      <g
         id="Copy-6-7-3-1"
         style="fill:#000000;fill-opacity:1;stroke:none;stroke-opacity:1" />
      <g
         id="Ebene_1-8-6-9-8"
         style="fill:#000000;fill-opacity:1;stroke:none;stroke-opacity:1" />
    </g>
    <g
       id="g830-3-3-8"
       transform="matrix(0.41341146,0,0,0.41341146,18.557211,4.9364776)"
       style="fill:#000000;fill-opacity:1;stroke:none;stroke-opacity:1"
       inkscape:export-xdpi="72.514709"
       inkscape:export-ydpi="72.514709"
       inkscape:export-filename="C:\Projects\vision-mapp\sources\VisionCockpit\DemoUI_5.5\Logical\mappView\Resources\Media\mappVision\icons\roiManipulations\manipulation.png">
      <g
         id="Copy-6-7-3"
         style="fill:#000000;fill-opacity:1;stroke:none;stroke-opacity:1">
        <path
           id="path815-4-4-95"
           d="m -11.320264,8.5364675 c -1.217,0 -2.205,0.923 -2.205,2.0630005 v 21.375 c 0,1.137 0.988,2.062 2.205,2.062 H 9.7697361 c 1.2179999,0 2.2049999,-0.925 2.2049999,-2.062 v -21.375 c 0,-1.1400005 -0.987,-2.0630005 -2.2049999,-2.0630005 z m 21.545,23.2950005 c 0,0.25 -0.205,0.455 -0.4549999,0.455 H -11.320264 c -0.252,0 -0.455,-0.205 -0.455,-0.455 v -21.09 c 0,-0.253 0.203,-0.455 0.455,-0.455 H 9.7697361 c 0.2499999,0 0.4549999,0.203 0.4549999,0.455 z"
           inkscape:connector-curvature="0"
           sodipodi:nodetypes="cccssssccsssssssss"
           style="fill:#000000;fill-opacity:1;stroke:none;stroke-opacity:1" />
      </g>
      <g
         id="Ebene_1-8-6-9"
         style="fill:#000000;fill-opacity:1;stroke:none;stroke-opacity:1" />
    </g>
    <path
       style="stroke-width:0.41341144"
       d="m 17.054709,10.714464 c -0.02243,0 -0.04786,0.0039 -0.07338,0.01137 -0.02552,0.0075 -0.05108,0.01832 -0.0739,0.03204 -0.02282,0.01372 -0.04254,0.03047 -0.05685,0.04909 -0.01431,0.01862 -0.02325,0.03928 -0.02325,0.0615 v 1.396296 h -1.393711 c -0.02222,0 -0.0432,0.0081 -0.06201,0.02222 -0.01882,0.01412 -0.03563,0.03429 -0.04961,0.05685 -0.01398,0.02256 -0.02537,0.04753 -0.03307,0.07286 -0.0077,0.02533 -0.01189,0.05095 -0.01189,0.07338 v 0.972034 c 0,0.02222 0.0042,0.04898 0.01189,0.07648 0.0077,0.0275 0.01909,0.05609 0.03307,0.08165 0.01398,0.02555 0.03079,0.04821 0.04961,0.0646 0.01882,0.01639 0.03979,0.02635 0.06201,0.02635 h 1.393711 v 0.92294 c 0.209013,-0.141615 0.423564,-0.255029 0.641824,-0.338481 0.124208,-0.04747 0.247398,-0.08847 0.364834,-0.120923 0.193071,-0.05592 0.324083,-0.08867 0.440282,-0.113688 v -0.349336 h 0.358119 l -10e-4,-1.169438 c 0,-0.0184 0.0022,-0.03388 0.0067,-0.04599 0.0041,-0.03866 0.06949,-0.09548 0.177769,-0.02119 0.326929,0.247605 0.669639,0.504455 1.008724,0.759645 v -0.74414 c 0,-0.04506 -0.02144,-0.101598 -0.05426,-0.146762 -0.03281,-0.04517 -0.077,-0.07907 -0.121439,-0.07907 h -1.374595 v -1.396296 c 0,-0.08888 -0.157612,-0.153998 -0.246496,-0.153995 z"
       id="path815-8-2"
       inkscape:connector-curvature="0"
       inkscape:export-filename="C:\Projects\vision-mapp\sources\VisionCockpit\DemoUI_5.5\Logical\mappView\Resources\Media\mappVision\icons\roiManipulations\manipulation.png"
       inkscape:export-xdpi="72.514709"
       inkscape:export-ydpi="72.514709" />
    <g
       id="g862-1-9-1"
       transform="matrix(0.48434148,0,0,0.48434148,61.377055,58.295751)"
       style="fill:#e30000;fill-opacity:1;stroke:none;stroke-width:0.96514624;stroke-miterlimit:4;stroke-dasharray:none;stroke-opacity:1;paint-order:stroke markers fill"
       inkscape:export-xdpi="122.8836"
       inkscape:export-ydpi="122.8836">
      <g
         id="Insert-8-0-0"
         style="fill:#e30000;fill-opacity:1;stroke:none;stroke-width:0.96514624;stroke-miterlimit:4;stroke-dasharray:none;stroke-opacity:1;paint-order:stroke markers fill" />
      <g
         id="Ebene_1-9-2-6-6"
         style="fill:#e30000;fill-opacity:1;stroke:none;stroke-width:0.96514624;stroke-miterlimit:4;stroke-dasharray:none;stroke-opacity:1;paint-order:stroke markers fill" />
    </g>
    <g
       id="g862-1-9"
       transform="matrix(0.41444497,0,0,0.41444497,10.762678,7.1819216)"
       style="stroke:none;stroke-width:0.96514624;stroke-miterlimit:4;stroke-dasharray:none;stroke-opacity:1;paint-order:stroke markers fill"
       inkscape:export-xdpi="72.514709"
       inkscape:export-ydpi="72.514709"
       inkscape:export-filename="C:\Projects\vision-mapp\sources\VisionCockpit\DemoUI_5.5\Logical\mappView\Resources\Media\mappVision\icons\roiManipulations\manipulation.png">
      <g
         id="Insert-8-0"
         style="stroke:none;stroke-width:0.96514624;stroke-miterlimit:4;stroke-dasharray:none;stroke-opacity:1;paint-order:stroke markers fill">
        <path
           id="path847-0-3"
           d="M 27.02,19.443 21,23.903 19.857,24.751 19.8,24.793 c -0.12,0.087 -0.222,0.065 -0.257,-0.042 -0.01,-0.028 -0.015,-0.058 -0.015,-0.095 l -0.005,-3.383 c -0.54,-0.005 -1.25,-0.01 -2.022,0.038 -2.148,0.14 -4.798,0.715 -5.76,3.007 0.033,-2.347 0.878,-3.952 2.01,-5.05 0.887,-0.865 1.952,-1.415 2.942,-1.768 0.275,-0.098 0.548,-0.183 0.808,-0.25 0.87,-0.235 1.61,-0.323 2.017,-0.353 l -0.002,-3.052 c 0,-0.038 0.005,-0.07 0.015,-0.095 0.035,-0.11 0.137,-0.13 0.257,-0.043 l 0.057,0.043 1.155,0.853 6.02,4.44 c 0.148,0.11 0.15,0.29 0,0.4 z"
           inkscape:connector-curvature="0"
           sodipodi:nodetypes="cccccccccccccccccccc"
           style="stroke:none;stroke-width:0.96514624;stroke-miterlimit:4;stroke-dasharray:none;stroke-opacity:1;paint-order:stroke markers fill" />
      </g>
      <g
         id="Ebene_1-9-2-6"
         style="stroke:none;stroke-width:0.96514624;stroke-miterlimit:4;stroke-dasharray:none;stroke-opacity:1;paint-order:stroke markers fill" />
    </g>
  </g>
</svg>
