<?xml version="1.0" encoding="UTF-8" standalone="no"?>
<!-- Created with Inkscape (http://www.inkscape.org/) -->

<svg
   xmlns:dc="http://purl.org/dc/elements/1.1/"
   xmlns:cc="http://creativecommons.org/ns#"
   xmlns:rdf="http://www.w3.org/1999/02/22-rdf-syntax-ns#"
   xmlns:svg="http://www.w3.org/2000/svg"
   xmlns="http://www.w3.org/2000/svg"
   xmlns:sodipodi="http://sodipodi.sourceforge.net/DTD/sodipodi-0.dtd"
   xmlns:inkscape="http://www.inkscape.org/namespaces/inkscape"
   width="808.1952px"
   height="547px"
   viewBox="0 0 808.1952 547"
   id="svg4454"
   version="1.1"
   inkscape:version="0.48.5 r10040"
   sodipodi:docname="mapp_Vision_Main_Page_V5.7_de.svg">
  <defs
     id="defs4456" />
  <sodipodi:namedview
     id="base"
     pagecolor="#ffffff"
     bordercolor="#666666"
     borderopacity="1.0"
     inkscape:pageopacity="0.0"
     inkscape:pageshadow="2"
     inkscape:zoom="1.4"
     inkscape:cx="276.47824"
     inkscape:cy="263.46769"
     inkscape:document-units="px"
     inkscape:current-layer="svg4454"
     showgrid="false"
     inkscape:window-width="1920"
     inkscape:window-height="1017"
     inkscape:window-x="-8"
     inkscape:window-y="-8"
     inkscape:window-maximized="1"
     fit-margin-top="0"
     fit-margin-left="0"
     fit-margin-right="0"
     fit-margin-bottom="0" />
  <metadata
     id="metadata4459">
    <rdf:RDF>
      <cc:Work
         rdf:about="">
        <dc:format>image/svg+xml</dc:format>
        <dc:type
           rdf:resource="http://purl.org/dc/dcmitype/StillImage" />
        <dc:title />
      </cc:Work>
    </rdf:RDF>
  </metadata>
  <style
     id="style1">
.hover_style{
	color:#000000;
	display:inline;
	enable-background:accumulate;
	fill-rule:evenodd;
	fill:#fff;
	font-family:Sans;
	overflow:visible;
	stroke-miterlimit:4;
	stroke-width:4;
	stroke:#000;
}
	   
g.clickable:hover .background_hotspot {fill:#ff8800;}
g.clickable:hover {cursor:pointer;}
	   
</style>
  <g
     id="mappVisionMain"
     transform="matrix(0.72652566,0,0,0.72652566,1.0447354e-6,-3.0251516e-5)">
    <path
       sodipodi:nodetypes="ccc"
       inkscape:connector-curvature="0"
       id="Connector"
       d="M 468.57143,7.32422e-7 C 775.94237,254.84774 740.14658,462.74968 468.57143,720 675.22406,463.85319 712.78425,257.64436 468.57143,7.32422e-7 Z"
       style="fill:#ff8800;fill-opacity:1;fill-rule:evenodd;stroke:none;stroke-width:1px;stroke-linecap:butt;stroke-linejoin:miter;stroke-opacity:1" />
    <g
       id="gGettingStarted"
       class="clickable"
       onclick="PictureLink_GettingStarted"
       transform="translate(1309.3228,-53.3965)">
      <circle
         id="Circle-ShadowGettingStarted"
         r="59.714283"
         cy="109.68221"
         cx="-784.4657"
         style="opacity:1;fill:#ffffff;fill-opacity:1;fill-rule:evenodd;stroke:none;stroke-width:4;stroke-miterlimit:4;stroke-dasharray:none;stroke-opacity:1"
         inkscape:label="#path6Circle-Shadow"
         d="m -724.75142,109.68221 c 0,32.97929 -26.73499,59.71429 -59.71428,59.71429 -32.97929,0 -59.71428,-26.735 -59.71428,-59.71429 0,-32.979285 26.73499,-59.71428 59.71428,-59.71428 32.97929,0 59.71428,26.734995 59.71428,59.71428 z" />
      <circle
         id="CircleGettingStarted"
         r="54.285713"
         cy="109.68221"
         cx="-784.4657"
         class="background_hotspot hover_style"
         style="stroke:#ff8800;stroke-opacity:1"
         d="m -730.17999,109.68221 c 0,29.98117 -24.30454,54.28572 -54.28571,54.28572 -29.98117,0 -54.28571,-24.30455 -54.28571,-54.28572 0,-29.981169 24.30454,-54.28571 54.28571,-54.28571 29.98117,0 54.28571,24.304541 54.28571,54.28571 z" />
      <g
         transform="matrix(1.158144,0,0,1.117116,-1246.3571,-286.68407)"
         id="gIconGettingStarted">
        <g
           transform="matrix(0.49047454,0,0,0.49047454,510.64119,90.706659)"
           id="g5105">
          <path
             inkscape:connector-curvature="0"
             style="fill:#000000;fill-rule:evenodd;stroke:#000000;stroke-width:2.5;stroke-linecap:round;stroke-linejoin:round;stroke-miterlimit:4"
             id="path5101"
             d="m -250.27,521.4 c 0,4.39 -3.56,7.95 -7.95,7.95 -4.39,0 -7.95,-3.56 -7.95,-7.95 0,-4.39 3.56,-7.95 7.95,-7.95 4.39,0 7.95,3.56 7.95,7.95 z"
             transform="translate(1.1364216,0.75761441)" />
          <path
             inkscape:connector-curvature="0"
             style="fill:#000000;stroke:#000000;stroke-linecap:round;stroke-linejoin:round"
             d="m -263.02,533.65 -5.18,42.81 3.91,0.88 0.13,8.59 10.48,-0.76 1.39,-8.21 2.27,-0.51 -1.01,-35.23 z"
             id="path5103" />
        </g>
        <g
           transform="translate(22.223356,10.101525)"
           id="g5261">
          <path
             inkscape:connector-curvature="0"
             style="fill:none;stroke:#000000;stroke-linecap:round;stroke-linejoin:round"
             d="m 381.8,353.28 7.2,-1.52"
             id="path5109" />
          <path
             style="display:inline;fill:none;stroke:#000000;stroke-linecap:round;stroke-linejoin:round"
             inkscape:connector-curvature="0"
             class="s14"
             d="M 381.8,351.32 389,349.8"
             id="path5109-1" />
          <path
             style="display:inline;fill:none;stroke:#000000;stroke-linecap:round;stroke-linejoin:round"
             inkscape:connector-curvature="0"
             class="s14"
             d="m 381.8,349.36 7.2,-1.52"
             id="path5109-15" />
          <rect
             style="fill:#000000;fill-rule:evenodd;stroke:#000000;stroke-width:0.83999997;stroke-linecap:round;stroke-linejoin:round;stroke-miterlimit:4"
             id="rect5138"
             width="2.01"
             height="1.35"
             x="384.39999"
             y="352.88"
             ry="0" />
          <path
             inkscape:connector-curvature="0"
             style="fill:#ffffff;stroke:#000000;stroke-width:2;stroke-miterlimit:4"
             d="m 389.06,346.83 c -2.79,0.19 -4.33,0.18 -6.88,0 -0.58,-0.04 -0.96,-0.73 -1.2,-1.26 -0.63,-1.41 -0.01,-3.12 -0.38,-4.62 -0.81,-3.29 -3.97,-4.47 -3.98,-9.36 0,-4.35 5.45,-8.79 9.79,-8.6 4.04,0.18 8.3,4.73 8.4,8.79 0.11,4.44 -3.46,6.29 -4.29,9.74 -0.33,1.35 0.34,2.91 -0.25,4.17 -0.23,0.5 -0.65,1.1 -1.2,1.14 z"
             id="path5151" />
          <path
             style="fill:none;stroke:#000000;stroke-width:2;stroke-linecap:round;stroke-miterlimit:4"
             inkscape:connector-curvature="0"
             class="s15"
             d="m 386.61,319.06 0,-4.02"
             id="path5166" />
          <path
             style="display:inline;fill:none;stroke:#000000;stroke-width:2;stroke-linecap:round;stroke-miterlimit:4"
             inkscape:connector-curvature="0"
             class="s16"
             d="m 377.13,322.18 -2.84,-2.84"
             id="path5166-2" />
          <path
             style="display:inline;fill:none;stroke:#000000;stroke-width:2;stroke-linecap:round;stroke-miterlimit:4"
             inkscape:connector-curvature="0"
             class="s16"
             d="m 394.96,322.98 2.84,-2.84"
             id="path5166-2-7" />
          <path
             style="display:inline;fill:none;stroke:#000000;stroke-width:2;stroke-linecap:round;stroke-miterlimit:4"
             inkscape:connector-curvature="0"
             class="s16"
             d="m 398.44,331.25 4.02,0"
             id="path5166-6" />
          <path
             style="display:inline;fill:none;stroke:#000000;stroke-width:2;stroke-linecap:round;stroke-miterlimit:4"
             inkscape:connector-curvature="0"
             class="s16"
             d="m 369.07,331.07 4.02,0"
             id="path5166-6-1" />
        </g>
      </g>
      <text
         xml:space="preserve"
         style="font-style:normal;font-weight:normal;font-size:40px;line-height:125%;font-family:sans-serif;letter-spacing:0px;word-spacing:0px;fill:#000000;fill-opacity:1;stroke:none;stroke-width:1px;stroke-linecap:butt;stroke-linejoin:miter;stroke-opacity:1"
         x="-712.17999"
         y="120.71737"
         id="TextGettingStarted"
         sodipodi:linespacing="125%"><tspan
           sodipodi:role="line"
           id="tspan4194"
           x="-712.17999"
           y="120.71737">Getting Started</tspan></text>
    </g>
    <g
       id="gConfiguration"
       class="clickable"
       onclick="PictureLink_Configuration"
       transform="translate(1395.3228,96.65779)">
      <circle
         id="Circle-ShadowConfiguration"
         r="59.714283"
         cy="109.68221"
         cx="-784.4657"
         style="opacity:1;fill:#ffffff;fill-opacity:1;fill-rule:evenodd;stroke:none;stroke-width:4;stroke-miterlimit:4;stroke-dasharray:none;stroke-opacity:1"
         inkscape:label="#path6Circle-Shadow"
         d="m -724.75142,109.68221 c 0,32.97929 -26.73499,59.71429 -59.71428,59.71429 -32.97929,0 -59.71428,-26.735 -59.71428,-59.71429 0,-32.979285 26.73499,-59.71428 59.71428,-59.71428 32.97929,0 59.71428,26.734995 59.71428,59.71428 z" />
      <circle
         id="CircleConfiguration"
         r="54.285713"
         cy="109.68221"
         cx="-784.4657"
         class="background_hotspot hover_style"
         style="stroke:#ff8800;stroke-opacity:1"
         d="m -730.17999,109.68221 c 0,29.98117 -24.30454,54.28572 -54.28571,54.28572 -29.98117,0 -54.28571,-24.30455 -54.28571,-54.28572 0,-29.981169 24.30454,-54.28571 54.28571,-54.28571 29.98117,0 54.28571,24.304541 54.28571,54.28571 z" />
      <g
         transform="matrix(0.81452485,0,0,0.81452485,-1091.0063,-344.21695)"
         id="gIconConfiguration">
        <g
           style="display:inline;fill:#000000"
           class="s4"
           id="g442-9"
           transform="matrix(0.40126271,0,0,0.49433689,377.82596,543.47695)">
          <path
             style="fill:#000000;stroke-miterlimit:4"
             inkscape:connector-curvature="0"
             stroke-miterlimit="4"
             id="path58241-3"
             d="M 41,1 C 38.26,1 35.58,1.29 33,1.81 L 33,8 C 29.53,8.84 29.27,8.78 27.09,6.76 L 25.21,5.55 c -2.25,1.49 -10.56,5.3 -12.46,7.2 -1.9,1.9 -3.64,3.94 -5.12,6.19 l 4.38,4.38 c -1.82,2.97 -3.16,6.21 -4,9.69 l -6.19,0 c -0.53,2.58 -0.81,5.26 -0.81,8 0,2.74 0.29,5.42 0.81,8 l 6.19,0 c 0.84,3.47 2.18,6.72 4,9.69 l -4.37,4.38 c 1.49,2.24 3.23,4.29 5.13,6.19 4.24,3 7.01,4.29 11.03,5.6 4.62,1.37 5.74,-1.69 9.22,-0.85 l 0,6.19 c 2.58,0.53 5.26,0.81 8,0.81 2.74,0 5.42,-0.29 8,-0.81 l 0,-6.19 c 3.45,-0.86 6.7,-2.2 9.67,-4.02 l 2.59,2.57 c 2.24,-1.49 6.07,-1.42 7.97,-3.32 1.9,-1.9 3.64,-3.94 5.13,-6.19 l -4.37,-4.37 c 1.82,-2.97 3.16,-6.21 4,-9.69 l 6.19,0 c 0.53,-2.58 0.81,-5.26 0.81,-8 0,-2.74 -0.29,-5.42 -0.81,-8 l -6.19,0 c -0.84,-3.47 -2.18,-6.72 -4,-9.69 l 4.38,-4.37 C 72.9,16.7 71.16,14.65 69.27,12.75 67.37,10.85 65.33,11.46 63.08,9.97 L 58.69,12 C 55.72,10.18 52.48,8.84 49,8 L 49,1.81 C 46.41,1.29 43.74,1 41,1 Z m 0.16,24.98 c 11.5,0.22 16.18,8.2 16.38,15.4 0.23,8.49 -6.28,16.45 -16.23,16.55 C 32.17,58.03 24.03,50.88 24.46,41 24.8,33.28 31.37,25.79 41.16,25.98 Z" />
        </g>
        <g
           style="stroke:#000000;stroke-width:4.48999977;stroke-miterlimit:4"
           id="g442"
           transform="matrix(0.40126271,0,0,0.49433689,380.73636,543.40214)">
          <path
             inkscape:connector-curvature="0"
             style="fill:#ffffff;stroke:#000000;stroke-width:4.48999977;stroke-linecap:round;stroke-linejoin:round;stroke-miterlimit:4;stroke-dashoffset:162"
             stroke-miterlimit="4"
             id="path58241"
             d="M 41,1 C 38.26,1 35.58,1.29 33,1.81 L 33,8 c -3.47,0.84 -6.72,2.18 -9.69,4 L 18.94,7.63 c -2.24,1.49 -4.29,3.23 -6.19,5.13 -1.9,1.9 -3.64,3.94 -5.12,6.19 l 4.38,4.38 c -1.82,2.97 -3.16,6.21 -4,9.69 l -6.19,0 c -0.53,2.58 -0.81,5.26 -0.81,8 0,2.74 0.29,5.42 0.81,8 l 6.19,0 c 0.84,3.47 2.18,6.72 4,9.69 l -4.37,4.38 c 1.49,2.24 3.23,4.29 5.13,6.19 1.9,1.9 3.94,3.64 6.19,5.13 L 23.31,70 c 2.97,1.82 6.21,3.16 9.69,4 l 0,6.19 c 2.58,0.53 5.26,0.81 8,0.81 2.74,0 5.42,-0.29 8,-0.81 L 49,74 c 3.47,-0.84 6.72,-2.18 9.69,-4 l 4.38,4.38 c 2.24,-1.49 4.29,-3.23 6.19,-5.13 1.9,-1.9 3.64,-3.94 5.13,-6.19 l -4.37,-4.37 c 1.82,-2.97 3.16,-6.21 4,-9.69 l 6.19,0 c 0.53,-2.58 0.81,-5.26 0.81,-8 0,-2.74 -0.29,-5.42 -0.81,-8 l -6.19,0 c -0.84,-3.47 -2.18,-6.72 -4,-9.69 L 74.4,18.94 C 72.91,16.7 71.17,14.65 69.28,12.75 67.38,10.85 65.34,9.11 63.09,7.63 l -4.37,4.38 c -2.97,-1.82 -6.21,-3.16 -9.69,-4 l 0,-6.19 C 46.41,1.29 43.74,1 41,1 Z m 0.16,24.98 c 11.5,0.22 16.18,8.2 16.38,15.4 0.23,8.49 -6.28,16.45 -16.23,16.55 C 32.17,58.03 24.03,50.88 24.46,41 24.8,33.28 31.37,25.79 41.16,25.98 Z" />
        </g>
        <g
           style="display:inline;stroke-width:1.61000001;stroke-miterlimit:4"
           id="g4426-7"
           transform="matrix(1.2660274,0,0,1.2163822,254.14496,18.72936)">
          <g
             style="display:inline;fill:#000000"
             class="s4"
             transform="matrix(0.40126271,0,0,0.49433689,66.254527,420.76266)"
             id="g442-9-2">
            <path
               style="fill:#000000;stroke-miterlimit:4"
               inkscape:connector-curvature="0"
               d="M 41,1 C 38.26,1 35.58,1.29 33,1.81 L 33,8 C 29.96,9.42 29.26,9.08 26.3,6.75 L 22.6,6.1 c -2.24,1.49 -5.66,3.12 -9.85,6.65 -2.08,1.75 -3.64,3.94 -5.12,6.19 l 4.38,4.38 c -1.82,2.97 -3.16,6.21 -4,9.69 l -6.19,0 c -0.53,2.58 -0.81,5.26 -0.81,8 0,2.74 0.29,5.42 0.81,8 l 6.19,0 c 0.84,3.47 2.18,6.72 4,9.69 l -4.37,4.38 c 1.49,2.24 1.49,2.71 4.16,5.56 4.16,4.43 9.96,6.72 12.2,8.21 l 4.38,-4.08 c 2.44,0.59 1.16,0.41 4.63,1.25 l 0,6.19 c 2.58,0.53 5.26,0.81 8,0.81 2.74,0 5.42,-0.29 8,-0.81 l 0,-6.19 c 3.46,-0.86 6.71,-2.2 9.68,-4.02 l 2.82,2.33 c 2.24,-1.49 5.85,-1.18 7.74,-3.08 1.9,-1.9 3.64,-3.94 5.13,-6.19 l -4.37,-4.37 c 1.82,-2.97 3.16,-6.21 4,-9.69 l 6.19,0 c 0.53,-2.58 0.81,-5.26 0.81,-8 0,-2.74 -0.29,-5.42 -0.81,-8 l -6.19,0 c -0.84,-3.47 -2.18,-6.72 -4,-9.69 l 4.38,-4.37 c -1.5,-2.25 -3.24,-4.29 -5.14,-6.19 -1.9,-1.9 -5.62,-1.85 -7.87,-3.34 L 58.69,12 C 55.72,10.18 52.48,8.84 49,8 L 49,1.81 C 46.41,1.29 43.74,1 41,1 Z m 0.16,24.98 c 11.5,0.22 16.18,8.2 16.38,15.4 0.23,8.49 -6.28,16.45 -16.23,16.55 C 32.17,58.03 24.03,50.88 24.46,41 24.8,33.28 31.37,25.79 41.16,25.98 Z"
               id="path58241-3-0"
               stroke-miterlimit="4" />
          </g>
          <g
             style="stroke:#000000;stroke-width:3.61999989;stroke-miterlimit:4"
             transform="matrix(0.40126271,0,0,0.49433689,69.164931,420.68785)"
             id="g442-1">
            <path
               inkscape:connector-curvature="0"
               style="fill:#ffffff;stroke:#000000;stroke-width:3.61999989;stroke-linecap:round;stroke-linejoin:round;stroke-miterlimit:4;stroke-dashoffset:162"
               d="M 41,1 C 38.26,1 35.58,1.29 33,1.81 L 33,8 c -3.47,0.84 -6.72,2.18 -9.69,4 L 18.94,7.63 c -2.24,1.49 -4.29,3.23 -6.19,5.13 -1.9,1.9 -3.64,3.94 -5.12,6.19 l 4.38,4.38 c -1.82,2.97 -3.16,6.21 -4,9.69 l -6.19,0 c -0.53,2.58 -0.81,5.26 -0.81,8 0,2.74 0.29,5.42 0.81,8 l 6.19,0 c 0.84,3.47 2.18,6.72 4,9.69 l -4.37,4.38 c 1.49,2.24 3.23,4.29 5.13,6.19 1.9,1.9 3.94,3.64 6.19,5.13 L 23.31,70 c 2.97,1.82 6.21,3.16 9.69,4 l 0,6.19 c 2.58,0.53 5.26,0.81 8,0.81 2.74,0 5.42,-0.29 8,-0.81 L 49,74 c 3.47,-0.84 6.72,-2.18 9.69,-4 l 4.38,4.38 c 2.24,-1.49 4.29,-3.23 6.19,-5.13 1.9,-1.9 3.64,-3.94 5.13,-6.19 l -4.37,-4.37 c 1.82,-2.97 3.16,-6.21 4,-9.69 l 6.19,0 c 0.53,-2.58 0.81,-5.26 0.81,-8 0,-2.74 -0.29,-5.42 -0.81,-8 l -6.19,0 c -0.84,-3.47 -2.18,-6.72 -4,-9.69 L 74.4,18.94 C 72.91,16.7 71.17,14.65 69.28,12.75 67.38,10.85 65.34,9.11 63.09,7.63 l -4.37,4.38 c -2.97,-1.82 -6.21,-3.16 -9.69,-4 l 0,-6.19 C 46.41,1.29 43.74,1 41,1 Z m 0.16,24.98 c 11.5,0.22 16.18,8.2 16.38,15.4 0.23,8.49 -6.28,16.45 -16.23,16.55 C 32.17,58.03 24.03,50.88 24.46,41 24.8,33.28 31.37,25.79 41.16,25.98 Z"
               id="path58241-5"
               stroke-miterlimit="4" />
          </g>
        </g>
      </g>
      <text
         xml:space="preserve"
         style="font-style:normal;font-weight:normal;font-size:40px;line-height:125%;font-family:sans-serif;letter-spacing:0px;word-spacing:0px;fill:#000000;fill-opacity:1;stroke:none;stroke-width:1px;stroke-linecap:butt;stroke-linejoin:miter;stroke-opacity:1"
         x="-712.17999"
         y="120.71737"
         id="TextConfiguration"
         sodipodi:linespacing="125%"><tspan
           sodipodi:role="line"
           id="tspan4194-6"
           x="-712.17999"
           y="120.71737">Konfiguration</tspan></text>
    </g>
    <g
       id="gProgramming"
       class="clickable"
       onclick="PictureLink_Programming"
       transform="translate(1443.3663,246.71208)">
      <circle
         id="Circle-ShadowProgramming"
         r="59.714283"
         cy="109.68221"
         cx="-784.4657"
         style="opacity:1;fill:#ffffff;fill-opacity:1;fill-rule:evenodd;stroke:none;stroke-width:4;stroke-miterlimit:4;stroke-dasharray:none;stroke-opacity:1"
         inkscape:label="#path6Circle-Shadow"
         d="m -724.75142,109.68221 c 0,32.97929 -26.73499,59.71429 -59.71428,59.71429 -32.97929,0 -59.71428,-26.735 -59.71428,-59.71429 0,-32.979285 26.73499,-59.71428 59.71428,-59.71428 32.97929,0 59.71428,26.734995 59.71428,59.71428 z" />
      <circle
         id="CircleProgramming"
         r="54.285713"
         cy="109.68221"
         cx="-784.4657"
         class="background_hotspot hover_style"
         style="stroke:#ff8800;stroke-opacity:1"
         d="m -730.17999,109.68221 c 0,29.98117 -24.30454,54.28572 -54.28571,54.28572 -29.98117,0 -54.28571,-24.30455 -54.28571,-54.28572 0,-29.981169 24.30454,-54.28571 54.28571,-54.28571 29.98117,0 54.28571,24.304541 54.28571,54.28571 z" />
      <g
         transform="matrix(1.1693379,0,0,1.1693379,-964.61127,-480.0847)"
         id="gIconProgramming">
        <g
           style="display:inline"
           display="inline"
           transform="matrix(0.83651226,0,0,0.85568509,24.090603,74.503152)"
           id="g4023-8">
          <path
             style="fill:none;stroke:#000000;stroke-linecap:round"
             inkscape:connector-curvature="0"
             class="s10"
             d="m 129.29,491.54 51.43,0"
             id="path3976-2" />
          <path
             style="display:inline;fill:none;stroke:#000000;stroke-linecap:round"
             inkscape:connector-curvature="0"
             class="s11"
             d="m 129.29,510.04 51.43,0"
             id="path3976-0-4" />
          <path
             style="display:inline;fill:none;stroke:#000000;stroke-linecap:round"
             inkscape:connector-curvature="0"
             class="s11"
             d="m 129.29,500.58 51.43,0"
             id="path3976-9-5" />
          <path
             style="display:inline;fill:none;stroke:#000000;stroke-linecap:round"
             inkscape:connector-curvature="0"
             class="s11"
             d="m 129.29,519.68 51.43,0"
             id="path3976-4-5" />
          <rect
             style="fill:#ffffff;fill-rule:evenodd;stroke:#000000;stroke-width:2.5;stroke-linecap:round;stroke-linejoin:round;stroke-miterlimit:3.9000001"
             class="s12"
             id="rect3972-1"
             width="37.709999"
             height="46.990002"
             x="135.75"
             y="478.64999"
             ry="0" />
          <path
             style="display:inline;fill:none;stroke:#000000;stroke-width:2.44000006;stroke-linecap:round;stroke-linejoin:round;stroke-miterlimit:3.9000001"
             inkscape:connector-curvature="0"
             class="s13"
             d="m 137.22,486.51 35.95,0"
             id="path3976-8-7" />
        </g>
        <g
           transform="matrix(0.83651226,0,0,0.85568509,24.697742,74.860285)"
           id="g4023">
          <path
             style="fill:none;stroke:#000000;stroke-linecap:round"
             inkscape:connector-curvature="0"
             class="s10"
             d="m 129.29,491.54 51.43,0"
             id="path3976" />
          <path
             style="display:inline;fill:none;stroke:#000000;stroke-linecap:round"
             inkscape:connector-curvature="0"
             class="s11"
             d="m 129.29,510.04 51.43,0"
             id="path3976-0" />
          <path
             style="display:inline;fill:none;stroke:#000000;stroke-linecap:round"
             inkscape:connector-curvature="0"
             class="s11"
             d="m 129.29,500.58 51.43,0"
             id="path3976-9" />
          <path
             style="display:inline;fill:none;stroke:#000000;stroke-linecap:round"
             inkscape:connector-curvature="0"
             class="s11"
             d="m 129.29,519.68 51.43,0"
             id="path3976-4" />
          <rect
             style="fill:#ffffff;fill-rule:evenodd;stroke:#000000;stroke-width:2.5;stroke-linecap:round;stroke-linejoin:round;stroke-miterlimit:3.9000001"
             class="s12"
             id="rect3972"
             width="37.709999"
             height="46.990002"
             x="135.75"
             y="478.64999"
             ry="0" />
          <path
             style="display:inline;fill:none;stroke:#000000;stroke-width:2.44000006;stroke-linecap:round;stroke-linejoin:round;stroke-miterlimit:3.9000001"
             inkscape:connector-curvature="0"
             class="s13"
             d="m 137.22,486.51 35.95,0"
             id="path3976-8" />
        </g>
      </g>
      <text
         xml:space="preserve"
         style="font-size:40px;font-style:normal;font-weight:normal;line-height:125%;letter-spacing:0px;word-spacing:0px;fill:#000000;fill-opacity:1;stroke:none;font-family:sans-serif"
         x="-712.17999"
         y="120.71737"
         id="TextProgramming"
         sodipodi:linespacing="125%"><tspan
           sodipodi:role="line"
           id="tspan4194-2"
           x="-712.17999"
           y="120.71737">Programmierung</tspan></text>
    </g>
    <g
       id="gCommissioning"
       class="clickable"
       onclick="PictureLink_Commissioning"
       transform="translate(1395.3228,396.76637)">
      <circle
         id="Circle-ShadowCommissioning"
         r="59.714283"
         cy="109.68221"
         cx="-784.4657"
         style="opacity:1;fill:#ffffff;fill-opacity:1;fill-rule:evenodd;stroke:none;stroke-width:4;stroke-miterlimit:4;stroke-dasharray:none;stroke-opacity:1"
         inkscape:label="#path6Circle-Shadow"
         d="m -724.75142,109.68221 c 0,32.97929 -26.73499,59.71429 -59.71428,59.71429 -32.97929,0 -59.71428,-26.735 -59.71428,-59.71429 0,-32.979285 26.73499,-59.71428 59.71428,-59.71428 32.97929,0 59.71428,26.734995 59.71428,59.71428 z" />
      <circle
         id="CircleCommissioning"
         r="54.285713"
         cy="109.68221"
         cx="-784.4657"
         class="background_hotspot hover_style"
         style="stroke:#ff8800;stroke-opacity:1"
         d="m -730.17999,109.68221 c 0,29.98117 -24.30454,54.28572 -54.28571,54.28572 -29.98117,0 -54.28571,-24.30455 -54.28571,-54.28572 0,-29.981169 24.30454,-54.28571 54.28571,-54.28571 29.98117,0 54.28571,24.304541 54.28571,54.28571 z" />
      <g
         transform="matrix(1.1991223,0,0,1.1991223,-1398.8666,-791.02413)"
         id="gIconCommissioning">
        <path
           inkscape:connector-curvature="0"
           style="fill:#000000;stroke:#000000;stroke-linejoin:round;stroke-miterlimit:4"
           id="path4499"
           d="m 503.59,764.34 c 7.16,-8.8 13.46,-16.87 23.19,-24.48 1.3,-1.01 2.99,0.36 4.7,-1.73 1.24,-1.51 3.01,-5.07 2.24,-6.82 -0.36,-0.82 -0.34,-0.86 -0.34,-0.86 0,0 -2.24,2.92 -3.35,4.39 -0.66,0.87 -2.86,1.16 -3.93,0.69 -1.03,-0.46 -2.56,-2.74 -2,-3.84 0.6,-1.19 3.15,-3.74 3.15,-3.74 0,0 -1.52,0.11 -2.23,0.45 -1.48,0.7 -3.58,2.03 -4.29,3.5 -0.54,1.12 -0.15,2.96 -0.07,4.08 0.09,1.18 -0.43,2.25 -1.1,3.1 -6.6,8.41 -11.97,14.41 -19.82,22.3 -0.84,0.85 -1.91,1.15 -3.51,1.05 -1.49,-0.09 -2.45,-0.4 -3.68,1.18 -1.15,1.47 -1.2,3.06 -1.39,4.7 -0.15,1.24 1.32,3.56 1.32,3.56 1.45,-1.98 0.46,-3.19 1.8,-4.63 0.43,-0.46 2.79,-0.35 3.62,0.25 0.68,0.49 1.72,2.01 1.39,2.97 -0.9,2.63 -1.33,4.48 -1.33,4.48 0,0 1.15,-0.88 1.88,-1.5 1.25,-1.07 2.24,-2.1 2.82,-3.66 0.38,-1.03 0.06,-2.08 0.3,-3.16 0.15,-0.69 0.15,-1.68 0.63,-2.28 z" />
        <path
           inkscape:connector-curvature="0"
           style="display:inline;fill:#ffffff;stroke:#000000;stroke-width:1.5;stroke-linejoin:round;stroke-miterlimit:4"
           id="path4499-1"
           d="m 504.51,764.55 c 7.16,-8.8 13.46,-16.87 23.19,-24.48 1.3,-1.01 2.99,0.36 4.7,-1.73 1.24,-1.51 1.97,-4.04 1.67,-6.08 -0.12,-0.87 -0.63,-1.74 -0.63,-1.74 0,0 -1.38,3.06 -2.5,4.53 -0.66,0.87 -2.86,1.16 -3.93,0.69 -1.03,-0.46 -2.56,-2.74 -2,-3.84 0.6,-1.19 2.25,-3.98 2.25,-3.98 0,0 -0.68,0 -1.4,0.34 -1.48,0.7 -3.52,2.37 -4.23,3.84 -0.54,1.12 -0.15,2.96 -0.07,4.08 0.09,1.18 -0.43,2.25 -1.1,3.1 -6.6,8.41 -11.97,14.41 -19.82,22.3 -0.84,0.85 -1.91,1.15 -3.51,1.05 -1.49,-0.09 -2.45,-0.4 -3.68,1.18 -1.15,1.47 -1.59,3.39 -1.79,5.03 -0.15,1.24 0.78,3.06 0.78,3.06 1.45,-1.98 1.38,-3.01 2.73,-4.46 0.43,-0.46 2.79,-0.35 3.62,0.25 0.68,0.49 1.86,2.08 1.39,2.97 -1.16,2.19 -2.12,4.19 -2.12,4.19 0,0 1.94,-0.59 2.67,-1.21 1.25,-1.07 2.24,-2.1 2.82,-3.66 0.38,-1.03 0.06,-2.08 0.3,-3.16 0.15,-0.69 0.15,-1.68 0.63,-2.28 z" />
        <path
           inkscape:connector-curvature="0"
           style="display:inline;fill:#000000;stroke:#000000;stroke-linejoin:round;stroke-miterlimit:4"
           id="path3880-4"
           d="m 537.68,768.41 c 0.36,0.92 -5.31,6.95 -6,6.72 -0.76,-0.25 -17.81,-16.43 -17.81,-16.43 l -6.41,-7.55 1.34,-1.72 c 0,0 -11.97,-11.5 -16.91,-14.79 -2.12,-1.42 -5.48,-5.38 -5.48,-5.38 l 1.85,-1.87 c 0,0 4.42,3.19 6.16,5.25 4.03,4.76 15.86,15.34 15.86,15.34 l 1.92,-2.02 7.59,6.1 c 0,0 17.57,15.54 17.89,16.36 z" />
        <path
           inkscape:connector-curvature="0"
           style="fill:#ffffff;stroke:#000000;stroke-width:1.5;stroke-linejoin:round;stroke-miterlimit:4"
           id="path3880"
           d="m 538.05,768.28 c 0.36,0.92 -5.31,6.95 -6,6.72 -0.76,-0.25 -17.81,-16.43 -17.81,-16.43 l -6.41,-7.55 1.34,-1.72 c 0,0 -11.97,-11.5 -16.91,-14.79 -2.12,-1.42 -5.48,-5.38 -5.48,-5.38 l 1.85,-1.87 c 0,0 4.42,3.19 6.16,5.25 4.03,4.76 15.86,15.34 15.86,15.34 l 1.92,-2.02 7.59,6.1 c 0,0 17.57,15.54 17.89,16.36 z" />
        <path
           inkscape:connector-curvature="0"
           style="fill:none;stroke:#000000;stroke-miterlimit:4"
           id="path3882"
           d="m 493.41,735.3 c 0,0 2.09,0.85 2.57,0.34 0.48,-0.51 -0.61,-2.43 -0.61,-2.43" />
        <path
           inkscape:connector-curvature="0"
           style="fill:none;stroke:#000000;stroke-width:0.95999998;stroke-linecap:round;stroke-miterlimit:4"
           id="path3884"
           d="M 532.76,771.89 516.51,756.86" />
        <path
           inkscape:connector-curvature="0"
           style="fill:none;stroke:#000000;stroke-width:0.98000002;stroke-linecap:round;stroke-miterlimit:4"
           id="path3886"
           d="M 535.18,769.49 518.83,754.37" />
        <path
           inkscape:connector-curvature="0"
           style="fill:none;stroke:#000000;stroke-linecap:round;stroke-miterlimit:4"
           id="path3888"
           d="m 514.63,756.82 4.17,-4.17" />
        <path
           inkscape:connector-curvature="0"
           style="display:inline;fill:none;stroke:#000000;stroke-linecap:round;stroke-miterlimit:4"
           id="path3888-7"
           d="m 509.31,749.55 1.39,-1.39" />
      </g>
      <text
         xml:space="preserve"
         style="font-size:40px;font-style:normal;font-weight:normal;line-height:125%;letter-spacing:0px;word-spacing:0px;fill:#000000;fill-opacity:1;stroke:none;font-family:sans-serif"
         x="-712.17999"
         y="120.71737"
         id="TextCommissioning"
         sodipodi:linespacing="125%"><tspan
           sodipodi:role="line"
           id="tspan4194-0"
           x="-712.17999"
           y="120.71737">Anwendungsfälle</tspan></text>
    </g>
    <g
       id="gDiagnosis"
       class="clickable"
       onclick="PictureLink_Diagnosis"
       transform="translate(1309.3228,546.82065)">
      <circle
         id="Circle-ShadowDiagnosis"
         r="59.714283"
         cy="109.68221"
         cx="-784.4657"
         style="opacity:1;fill:#ffffff;fill-opacity:1;fill-rule:evenodd;stroke:none;stroke-width:4;stroke-miterlimit:4;stroke-dasharray:none;stroke-opacity:1"
         inkscape:label="#path6Circle-Shadow"
         d="m -724.75142,109.68221 c 0,32.97929 -26.73499,59.71429 -59.71428,59.71429 -32.97929,0 -59.71428,-26.735 -59.71428,-59.71429 0,-32.979285 26.73499,-59.71428 59.71428,-59.71428 32.97929,0 59.71428,26.734995 59.71428,59.71428 z" />
      <circle
         id="CircleDiagnosis"
         r="54.285713"
         cy="109.68221"
         cx="-784.4657"
         class="background_hotspot hover_style"
         style="stroke:#ff8800;stroke-opacity:1"
         d="m -730.17999,109.68221 c 0,29.98117 -24.30454,54.28572 -54.28571,54.28572 -29.98117,0 -54.28571,-24.30455 -54.28571,-54.28572 0,-29.981169 24.30454,-54.28571 54.28571,-54.28571 29.98117,0 54.28571,24.304541 54.28571,54.28571 z" />
      <g
         transform="matrix(1.1053432,0,0,1.1053432,-395.46199,-705.44358)"
         id="gIconDiagnosis">
        <path
           inkscape:connector-curvature="0"
           style="fill:none;stroke:#000000;stroke-width:2.5;stroke-linecap:round;stroke-linejoin:round;stroke-miterlimit:4"
           id="path4089"
           d="m -353.43,733.28 c 0,0 0.46,7.51 -1.2,10.61 -1.03,1.92 -2.02,2.83 -4.1,3.47 -2.21,0.68 -5.75,0.18 -7.83,1.2 -3.16,1.54 -4.66,3.81 -5.81,7.13 -0.65,1.89 -0.64,4.15 0.13,6 1.45,3.52 4.39,6.77 7.89,8.27 6.11,2.63 13.67,2.24 19.95,0.06 3.27,-1.13 6,-3.07 7.51,-6.19 0.84,-1.74 0.63,-6.06 0.63,-6.06" />
        <path
           inkscape:connector-curvature="0"
           style="fill:#ffffff;fill-rule:evenodd;stroke:#000000;stroke-linecap:round;stroke-linejoin:round;stroke-miterlimit:3.9000001"
           transform="matrix(0.85815603,0,0,0.85815603,-47.465167,106.5148)"
           d="m -329.46,751.56 c 0,3.9 -3.16,7.05 -7.05,7.05 -3.9,0 -7.05,-3.16 -7.05,-7.05 0,-3.9 3.16,-7.05 7.05,-7.05 3.9,0 7.05,3.16 7.05,7.05 z"
           id="path4085" />
        <path
           inkscape:connector-curvature="0"
           style="fill:#000000;fill-rule:evenodd;stroke:#000000;stroke-width:2.5;stroke-linecap:round;stroke-linejoin:round;stroke-miterlimit:3.9000001"
           transform="translate(-1.9642857,-1.6071428)"
           d="m -331.43,753.08 c 0,1.58 -1.28,2.86 -2.86,2.86 -1.58,0 -2.86,-1.28 -2.86,-2.86 0,-1.58 1.28,-2.86 2.86,-2.86 1.58,0 2.86,1.28 2.86,2.86 z"
           id="path4083" />
        <path
           inkscape:connector-curvature="0"
           style="fill:none;stroke:#000000;stroke-width:2.5;stroke-linecap:round;stroke-miterlimit:4;marker-start:url(#DotS);marker-end:url(#DotS)"
           id="path4087"
           d="m -357.5,703.08 c 0,0 -7.97,-0.08 -8.09,0.69 -2.23,14.55 -0.39,27.15 -0.13,28.06 0.51,1.77 25.17,1.64 25.54,0 0.18,-0.8 0.91,-15.14 -0.25,-28.03 -0.06,-0.72 -9.26,-0.69 -9.26,-0.69" />
      </g>
      <text
         xml:space="preserve"
         style="font-style:normal;font-weight:normal;font-size:40px;line-height:125%;font-family:sans-serif;letter-spacing:0px;word-spacing:0px;fill:#000000;fill-opacity:1;stroke:none;stroke-width:1px;stroke-linecap:butt;stroke-linejoin:miter;stroke-opacity:1"
         x="-712.17999"
         y="120.71737"
         id="TextDiagnosis"
         sodipodi:linespacing="125%"><tspan
           sodipodi:role="line"
           id="tspan4194-5"
           x="-712.17999"
           y="120.71737">Diagnose</tspan></text>
    </g>
    <g
       id="mappVisionLogo"
       transform="matrix(3.1737212,0,0,3.2909382,0.59443129,234.19902)">
      <path
         id="path3282"
         d="m 38.611042,33.019876 -4.825141,0 0,-22.93462 c 0,-2.7547689 -1.278118,-5.2667447 -4.874682,-5.2667447 -4.884589,0 -7.004877,2.941533 -7.004877,7.7693827 l 0,20.431982 -4.825142,0 0,-22.757194 c 0,-2.6894017 -1.40692,-5.4441707 -4.755786,-5.4441707 -5.0133921,0 -7.1336803,2.8761656 -7.1336803,7.8347497 l 0,20.366615 -4.81523393,0 0,-32.23546719 4.81523393,0 0,2.56800499 C 6.9949694,1.2699952 10.016876,0.3548516 12.711821,0.3548516 c 3.537117,0 5.845655,1.6528614 7.203035,3.9780733 2.635499,-3.2403555 6.29151,-3.9780733 9.313416,-3.9780733 6.876075,0 9.38277,5.1360101 9.38277,9.3008473 z"
         style="fill:#ff8800;fill-opacity:1;fill-rule:evenodd;stroke:none"
         inkscape:connector-curvature="0" />
      <path
         id="path3284"
         d="m 64.054501,18.340225 -9.184613,0 c -3.665919,0 -6.172615,1.344701 -6.172615,4.77182 0,4.771821 3.665919,5.995125 7.203035,5.995125 4.042419,0 8.154193,-2.633373 8.154193,-7.031665 z m 4.815234,14.679651 -4.815234,0 0,-3.053592 c -1.476276,2.082419 -5.142195,3.613884 -8.927008,3.613884 -5.528602,0 -11.245454,-3.128297 -11.245454,-10.468123 0,-5.995124 4.686432,-9.114083 10.859046,-9.114083 l 9.313416,0 0,-3.053591 c 0,-4.7157915 -2.952551,-6.1258597 -6.935522,-6.1258597 -3.665919,0 -6.94543,1.5968322 -7.13368,5.9951247 l -4.825142,0 C 45.417762,3.1656498 51.976784,0.3548516 57.049623,0.3548516 c 5.786207,0 11.820112,2.6894016 11.820112,10.4027554 z"
         style="fill:#313130;fill-opacity:1;fill-rule:evenodd;stroke:none"
         inkscape:connector-curvature="0" />
      <path
         id="path3286"
         d="m 95.730021,11.915543 c 0,-4.4636593 -2.823748,-7.0970317 -7.579535,-7.0970317 -6.232062,0 -7.579535,3.8566766 -7.579535,7.0970317 l 0,10.094595 c 0,4.40763 2.823748,7.162399 7.579535,7.162399 6.232062,0 7.579535,-3.978073 7.579535,-7.162399 z m -7.579535,21.720654 c -2.823748,0 -6.232062,-1.288672 -7.579535,-3.118959 l 0,12.905393 -4.825142,0 0,-42.63822219 4.825142,0 0,2.51197579 c 2.120288,-2.147786 4.626984,-2.941533 7.579535,-2.941533 7.520088,0 12.404674,4.5290271 12.404674,11.5606914 l 0,10.094595 c 0,7.162399 -4.755784,11.626059 -12.404674,11.626059 z"
         style="fill:#313130;fill-opacity:1;fill-rule:evenodd;stroke:none"
         inkscape:connector-curvature="0" />
      <path
         id="path3288"
         d="m 126.95969,11.915543 c 0,-4.4636593 -2.82375,-7.0970317 -7.57954,-7.0970317 -6.23206,0 -7.58944,3.8566766 -7.58944,7.0970317 l 0,10.094595 c 0,4.40763 2.83365,7.162399 7.58944,7.162399 6.23206,0 7.57954,-3.978073 7.57954,-7.162399 z m -7.57954,21.720654 c -2.82375,0 -6.23206,-1.288672 -7.58944,-3.118959 l 0,12.905393 -4.81524,0 0,-42.63822219 4.81524,0 0,2.51197579 c 2.13019,-2.147786 4.62698,-2.941533 7.58944,-2.941533 7.52009,0 12.40468,4.5290271 12.40468,11.5606914 l 0,10.094595 c 0,7.162399 -4.75579,11.626059 -12.40468,11.626059 z"
         style="fill:#313130;fill-opacity:1;fill-rule:evenodd;stroke:none"
         inkscape:connector-curvature="0" />
      <path
         id="path3290"
         d="m 68.869735,43.413292 -29.911916,0 0,-4.547703 29.911916,0 z"
         style="fill:#313130;fill-opacity:1;fill-rule:evenodd;stroke:none"
         inkscape:connector-curvature="0" />
      <path
         id="path3292"
         d="m 38.957819,43.413292 -38.58131923,0 0,-4.547703 38.58131923,0 z"
         style="fill:#ff8800;fill-opacity:1;fill-rule:evenodd;stroke:none"
         inkscape:connector-curvature="0" />
      <path
         id="path3294"
         d="m 12.097532,49.193638 -4.4783656,16.183101 -2.1401039,0 -4.4783657,-16.183101 1.2583018,0 4.1216817,14.99715 0.3368683,0 4.1216814,-14.99715 z"
         style="fill:#ff8800;fill-opacity:1;fill-rule:evenodd;stroke:none"
         inkscape:connector-curvature="0" />
      <path
         id="path3296"
         d="m 14.911373,49.193638 0,16.183101 -1.307842,0 0,-16.183101 z"
         style="fill:#ff8800;fill-opacity:1;fill-rule:evenodd;stroke:none"
         inkscape:connector-curvature="0" />
      <path
         id="path3298"
         d="m 21.767632,65.600856 c -2.922828,0 -4.805326,-1.858302 -4.805326,-4.220867 l 1.307841,0 c 0,1.886317 1.476275,2.997563 3.477669,2.997563 2.258998,0 3.715458,-1.269996 3.715458,-3.044254 0,-1.40073 -0.713368,-2.222491 -1.852775,-2.838812 -1.486183,-0.793747 -2.744485,-1.382054 -4.151406,-2.101095 -1.288025,-0.663013 -2.209459,-1.914331 -2.209459,-3.42712 0,-2.297197 1.872591,-3.950059 4.547721,-3.950059 2.784117,0 4.716155,1.746244 4.716155,4.146161 l -1.307841,0 c 0,-1.904992 -1.45646,-2.922856 -3.408314,-2.922856 -1.813143,0 -3.239879,0.971173 -3.239879,2.792122 0,1.017863 0.594473,1.858301 1.714064,2.399917 1.218671,0.597645 2.457157,1.185951 3.933432,1.951684 1.64471,0.868452 2.566143,2.250506 2.566143,3.996749 0,2.427932 -2.209459,4.220867 -5.003483,4.220867 z"
         style="fill:#ff8800;fill-opacity:1;fill-rule:evenodd;stroke:none"
         inkscape:connector-curvature="0" />
      <path
         id="path3300"
         d="m 30.12989,49.193638 0,16.183101 -1.307842,0 0,-16.183101 z"
         style="fill:#ff8800;fill-opacity:1;fill-rule:evenodd;stroke:none"
         inkscape:connector-curvature="0" />
      <path
         id="path3302"
         d="m 37.332925,50.258193 c -1.862683,0 -3.388498,0.840438 -3.388498,2.978886 l 0,8.14291 c 0,2.12911 1.525815,2.969548 3.388498,2.969548 1.852775,0 3.358774,-0.840438 3.358774,-2.969548 l 0,-8.14291 c 0,-2.138448 -1.505999,-2.978886 -3.358774,-2.978886 z m -4.69634,11.168487 0,-8.236292 c 0,-2.474623 1.813144,-4.155499 4.69634,-4.155499 2.833656,0 4.666615,1.680876 4.666615,4.174175 l 0,8.19894 c 0,2.493299 -1.832959,4.174175 -4.666615,4.174175 -2.883196,0 -4.69634,-1.680876 -4.69634,-4.155499 z"
         style="fill:#ff8800;fill-opacity:1;fill-rule:evenodd;stroke:none"
         inkscape:connector-curvature="0" />
      <path
         id="path3304"
         d="m 52.125403,65.376739 -6.341049,-14.250093 0,14.250093 -1.307841,0 0,-16.183101 1.763604,0 6.410404,14.436858 0,-14.436858 1.307841,0 0,16.183101 z"
         style="fill:#ff8800;fill-opacity:1;fill-rule:evenodd;stroke:none"
         inkscape:connector-curvature="0" />
    </g>
    <g
       id="gConcept"
       class="clickable"
       onclick="PictureLink_Concept"
       transform="translate(840.75141,546.82065)">
      <circle
         id="CircleConcept"
         r="54.285713"
         cy="109.68221"
         cx="-784.4657"
         class="background_hotspot hover_style"
         style="stroke:#ff8800;stroke-opacity:1"
         d="m -730.17999,109.68221 c 0,29.98117 -24.30454,54.28572 -54.28571,54.28572 -29.98117,0 -54.28571,-24.30455 -54.28571,-54.28572 0,-29.981169 24.30454,-54.28571 54.28571,-54.28571 29.98117,0 54.28571,24.304541 54.28571,54.28571 z" />
      <g
         transform="matrix(0.35217818,0,0,0.35217818,-966.6438,-44.969523)"
         id="gIconConcept">
        <path
           style="fill:#ffffff;fill-opacity:1;stroke:#000000;stroke-width:5;stroke-linecap:round;stroke-linejoin:round;stroke-miterlimit:4;stroke-dasharray:none;stroke-opacity:1"
           d="m 519.72263,374.41602 c 0,0 7.34275,20.53583 9.1058,25.38889 2.7018,7.43692 13.81556,-22.49691 21.9037,-0.93457 7.19256,19.17469 -20.1032,4.91755 -17.46916,12.70596 2.43423,7.19755 9.97186,25.84698 9.97186,25.84698 0,0 20.77526,-8.29149 26.22466,-10.44063 8.29254,-3.27048 -5.75795,23.40663 14.05462,16.05464 21.45678,-7.96216 -9.22391,-16.77063 -1.00362,-20.92206 5.2367,-2.64464 25.89027,-9.55721 25.89027,-9.55721 l -23.24369,-62.6159 z"
           id="path3002-2"
           inkscape:connector-curvature="0"
           sodipodi:nodetypes="cssscsssccc" />
        <path
           style="fill:#ffffff;fill-opacity:1;stroke:#000000;stroke-width:5;stroke-linecap:round;stroke-linejoin:round;stroke-miterlimit:4;stroke-dasharray:none;stroke-opacity:1"
           d="m 572.35391,453.88445 c 0,0 -23.10114,-0.28999 -28.57077,-0.33499 -8.38176,-0.069 15.48753,19.76639 -5.88211,19.78431 -19.80319,0.0166 1.26184,-19.52234 -7.44351,-19.75978 -8.04495,-0.21945 -24.4813,0.64489 -24.4813,0.64489 0,0 0.12347,18.34779 0.23217,23.63574 0.16562,8.04683 -22.92948,-12.88028 -21.50487,8.09321 1.31196,19.31515 20.25357,-3.94315 21.32006,4.3214 0.67939,5.26487 -0.42541,26.51144 -0.42541,26.51144 l 66.74029,0.17773 z"
           id="path3002-2-1"
           inkscape:connector-curvature="0"
           sodipodi:nodetypes="cssscsssccc" />
        <path
           style="fill:#ffffff;fill-opacity:1;stroke:#000000;stroke-width:5;stroke-linecap:round;stroke-linejoin:round;stroke-miterlimit:4;stroke-dasharray:none;stroke-opacity:1"
           d="m 437.88807,453.6562 c 0,0 22.1839,0.30774 27.43636,0.35551 8.04896,0.0732 -14.8726,-20.97647 5.64855,-20.99548 19.0169,-0.0176 -1.21172,20.71746 7.14797,20.96944 7.72552,0.23289 24.36667,0.0736 24.36667,0.0736 0,0 0.0529,-20.22903 -0.0515,-25.84069 -0.15905,-8.53945 21.5299,13.67918 20.30805,-8.58866 -1.25988,-22.96115 -19.44939,4.18453 -20.47353,-4.58596 -0.65242,-5.58717 -0.96335,-28.32392 -0.96335,-28.32392 l -63.4044,8.8e-4 z"
           id="path3002-2-6"
           inkscape:connector-curvature="0"
           sodipodi:nodetypes="cssscsssccc" />
        <path
           style="fill:#ffffff;fill-opacity:1;stroke:#000000;stroke-width:5;stroke-linecap:round;stroke-linejoin:round;stroke-miterlimit:4;stroke-dasharray:none;stroke-opacity:1"
           d="m 505.57223,516.58463 c 0,0 0.3128,-21.42894 0.36135,-26.50265 0.0744,-7.77504 -21.32136,14.36645 -21.34069,-5.45632 -0.0179,-18.36972 21.0581,1.17049 21.31423,-6.90471 0.23671,-7.4626 0.0748,-23.53743 0.0748,-23.53743 0,0 -20.56164,-0.0511 -26.26557,0.0498 -8.67986,0.15363 10.51547,-22.96197 -8.72988,-21.3847 -22.13089,1.81376 4.30365,21.82607 -4.66136,21.54455 -8.07815,-0.25367 -28.53709,-0.58467 -28.53709,-0.58467 l -0.25164,62.76187 z"
           id="path3002-2-6-8"
           inkscape:connector-curvature="0"
           sodipodi:nodetypes="cssscsssccc" />
      </g>
      <text
         xml:space="preserve"
         style="font-style:normal;font-weight:normal;font-size:40px;line-height:125%;font-family:sans-serif;letter-spacing:0px;word-spacing:0px;fill:#000000;fill-opacity:1;stroke:none;stroke-width:1px;stroke-linecap:butt;stroke-linejoin:miter;stroke-opacity:1"
         x="-712.17999"
         y="120.71737"
         id="TextConcept"
         sodipodi:linespacing="125%"><tspan
           sodipodi:role="line"
           id="tspan4194-7"
           x="-712.17999"
           y="120.71737">Konzept</tspan></text>
    </g>
  </g>
</svg>
