<?xml version="1.0" encoding="UTF-8" standalone="no"?>
<!-- Created with Inkscape (http://www.inkscape.org/) -->

<svg
   xmlns:dc="http://purl.org/dc/elements/1.1/"
   xmlns:cc="http://creativecommons.org/ns#"
   xmlns:rdf="http://www.w3.org/1999/02/22-rdf-syntax-ns#"
   xmlns:svg="http://www.w3.org/2000/svg"
   xmlns="http://www.w3.org/2000/svg"
   xmlns:sodipodi="http://sodipodi.sourceforge.net/DTD/sodipodi-0.dtd"
   xmlns:inkscape="http://www.inkscape.org/namespaces/inkscape"
   version="1.1"
   id="svg2"
   width="16"
   height="16"
   viewBox="0 0 16 16"
   sodipodi:docname="icon_warning.svg"
   inkscape:version="0.92.4 (5da689c313, 2019-01-14)">
  <metadata
     id="metadata8">
    <rdf:RDF>
      <cc:Work
         rdf:about="">
        <dc:format>image/svg+xml</dc:format>
        <dc:type
           rdf:resource="http://purl.org/dc/dcmitype/StillImage" />
        <dc:title></dc:title>
      </cc:Work>
    </rdf:RDF>
  </metadata>
  <defs
     id="defs6" />
  <sodipodi:namedview
     pagecolor="#ffffff"
     bordercolor="#666666"
     borderopacity="1"
     objecttolerance="10"
     gridtolerance="10"
     guidetolerance="10"
     inkscape:pageopacity="0"
     inkscape:pageshadow="2"
     inkscape:window-width="1920"
     inkscape:window-height="1017"
     id="namedview4"
     showgrid="false"
     inkscape:zoom="1"
     inkscape:cx="-114.12227"
     inkscape:cy="14.026323"
     inkscape:window-x="-8"
     inkscape:window-y="-8"
     inkscape:window-maximized="1"
     inkscape:current-layer="svg2" />
  <path
     style="fill:#b1afaf;fill-opacity:1;stroke:none;stroke-width:1.03339648px;stroke-linecap:butt;stroke-linejoin:round;stroke-opacity:1"
     d="M 8.0371094 1.5175781 L 0.51757812 14.482422 L 15.482422 14.482422 L 8.0371094 1.5175781 z M 6.7851562 5.9316406 L 8.9628906 5.9316406 L 8.7226562 11.453125 L 7.0253906 11.453125 L 6.7851562 5.9316406 z M 6.8222656 12.3125 L 8.9257812 12.3125 L 8.9257812 13.6875 L 6.8222656 13.6875 L 6.8222656 12.3125 z "
     id="path817" />
  <path
     style="fill:#000000;stroke:#b1afaf;stroke-width:1px;stroke-linecap:butt;stroke-linejoin:round;stroke-opacity:1;fill-opacity:0"
     d="M 0.51666103,14.483301 H 15.483339 L 8.0361516,1.5166445 Z"
     id="path854"
     inkscape:connector-curvature="0" />
</svg>
