<?xml version="1.0" encoding="UTF-8" standalone="no"?>
<!-- Created with Inkscape (http://www.inkscape.org/) -->

<svg
   xmlns:dc="http://purl.org/dc/elements/1.1/"
   xmlns:cc="http://creativecommons.org/ns#"
   xmlns:rdf="http://www.w3.org/1999/02/22-rdf-syntax-ns#"
   xmlns:svg="http://www.w3.org/2000/svg"
   xmlns="http://www.w3.org/2000/svg"
   xmlns:sodipodi="http://sodipodi.sourceforge.net/DTD/sodipodi-0.dtd"
   xmlns:inkscape="http://www.inkscape.org/namespaces/inkscape"
   version="1.1"
   id="svg2"
   width="16"
   height="16"
   viewBox="0 0 16 16"
   sodipodi:docname="icon_error.svg"
   inkscape:version="0.92.4 (5da689c313, 2019-01-14)">
  <metadata
     id="metadata8">
    <rdf:RDF>
      <cc:Work
         rdf:about="">
        <dc:format>image/svg+xml</dc:format>
        <dc:type
           rdf:resource="http://purl.org/dc/dcmitype/StillImage" />
        <dc:title />
      </cc:Work>
    </rdf:RDF>
  </metadata>
  <defs
     id="defs6" />
  <sodipodi:namedview
     pagecolor="#ffffff"
     bordercolor="#666666"
     borderopacity="1"
     objecttolerance="10"
     gridtolerance="10"
     guidetolerance="10"
     inkscape:pageopacity="0"
     inkscape:pageshadow="2"
     inkscape:window-width="2560"
     inkscape:window-height="1377"
     id="namedview4"
     showgrid="false"
     inkscape:zoom="3.6875"
     inkscape:cx="53.112115"
     inkscape:cy="-37.817653"
     inkscape:window-x="1912"
     inkscape:window-y="-8"
     inkscape:window-maximized="1"
     inkscape:current-layer="svg2" />
  <path
     style="fill:#b1afaf;stroke:none;stroke-width:1.00018311px;stroke-linecap:butt;stroke-linejoin:miter;stroke-opacity:1"
     d="M 11.001953 0 L 5 0.01953125 L 0 5.0175781 L 0 10.996094 L 5.0058594 16 L 11.019531 16 L 16 11.021484 L 16 4.9960938 L 11.001953 0 z M 5.8359375 3.6640625 L 8 5.828125 L 10.164062 3.6640625 L 12.335938 5.8359375 L 10.171875 8 L 12.335938 10.164062 L 10.164062 12.335938 L 8 10.171875 L 5.8359375 12.335938 L 3.6640625 10.164062 L 5.828125 8 L 3.6640625 5.8359375 L 5.8359375 3.6640625 z "
     id="path820" />
</svg>
