<?xml version="1.0" encoding="utf-8"?>
<!-- Generator: Adobe Illustrator 18.1.1, SVG Export Plug-In . SVG Version: 6.00 Build 0)  -->
<svg version="1.1" id="Ebene_1" xmlns="http://www.w3.org/2000/svg" xmlns:xlink="http://www.w3.org/1999/xlink" x="0px" y="0px"
	 viewBox="0 0 24 24" width="50" height="50" enable-background="new 0 0 24 24" xml:space="preserve" fill="#FFFFFF">
<rect fill="none" width="24" height="24"/>
<g>
	<g>
		<g>
			<polygon points="9.5,3.5 18,12 9.5,20.5 8.1,19.1 15.2,12 8.1,4.9 			"/>
		</g>
	</g>
</g>
</svg>
