<?xml version="1.0" encoding="utf-8"?>
<!-- Generator: Adobe Illustrator 18.1.1, SVG Export Plug-In . SVG Version: 6.00 Build 0)  -->
<svg version="1.1" id="Ebene_1" xmlns="http://www.w3.org/2000/svg" xmlns:xlink="http://www.w3.org/1999/xlink" x="0px" y="0px"
	 viewBox="0 0 24 24" width="50" height="50" enable-background="new 0 0 24 24" xml:space="preserve" fill="#FFFFFF">
<rect fill="none" width="24" height="24"/>
<g>
	<g>
		<g>
			<polygon points="20.5,12.5 12,21 3.5,12.5 4.9,11.1 12,18.2 19.1,11.1 			"/>
		</g>
	</g>
</g>
<g>
	<g>
		<g>
			<polygon points="20.5,5.5 12,14 3.5,5.5 4.9,4.1 12,11.2 19.1,4.1 			"/>
		</g>
	</g>
</g>
</svg>
