ViAppBlob1;f07de931e20da553b41f4f468054f3b177cbc32b8b38f5d6ffb78475689d4255
ViAppBlob2;f07de931e20da553b41f4f468054f3b177cbc32b8b38f5d6ffb78475689d4255
ViAppCodeReading;5c651608daccecf4758700d03fa47dc169d75213e39a46d01ae7e979d84e6b85
ViAppMatch;64cf1c4d011ffeb80cc9af1f07699fe384a9190a3876123c6a9e1e2023316ed2
ViAppMeasurement;3f69a004508a02891c6533b4d84116ec7389fcac4ad9faafe91b09d68785f4ee
ViAppOCR;fb41206facda0a0fca369d38733223da7d75b97da89b1325d54fce59b9549219
ViAppPixel;d5d60096fad667d7b5e9996ac489cedbfd1bb1ed4c698eba2fe2d3b08d24f047
